%YAML 1.1
%TAG !u! tag:unity3d.com,2011:
--- !u!114 &11400000
MonoBehaviour:
  m_ObjectHideFlags: 0
  m_PrefabParentObject: {fileID: 0}
  m_PrefabInternal: {fileID: 0}
  m_GameObject: {fileID: 0}
  m_Enabled: 1
  m_EditorHideFlags: 0
  m_Script: {fileID: 11500000, guid: e097b20a05a065348b383ab87ff42436, type: 3}
  m_Name: vill.MMD4Mecanim
  m_EditorClassIdentifier: 
  fbxAsset: {fileID: 0}
  fbxAssetPath: 
  editorViewPage: 0
