%YAML 1.1
%TAG !u! tag:unity3d.com,2011:
--- !u!1 &100000
GameObject:
  m_ObjectHideFlags: 0
  m_PrefabParentObject: {fileID: 0}
  m_PrefabInternal: {fileID: 100100000}
  serializedVersion: 4
  m_Component:
  - 4: {fileID: 400000}
  - 114: {fileID: 11400000}
  - 114: {fileID: 11400002}
  - 114: {fileID: 11400004}
  - 114: {fileID: 11400006}
  - 114: {fileID: 11400008}
  - 114: {fileID: 11400010}
  - 114: {fileID: 11400012}
  - 114: {fileID: 11400014}
  - 114: {fileID: 11400016}
  - 114: {fileID: 11468200}
  m_Layer: 0
  m_Name: Detonator-Insanity
  m_TagString: Untagged
  m_Icon: {fileID: 0}
  m_NavMeshLayer: 0
  m_StaticEditorFlags: 0
  m_IsActive: 1
--- !u!1002 &100001
EditorExtensionImpl:
  serializedVersion: 6
--- !u!4 &400000
Transform:
  m_ObjectHideFlags: 1
  m_PrefabParentObject: {fileID: 0}
  m_PrefabInternal: {fileID: 100100000}
  m_GameObject: {fileID: 100000}
  m_LocalRotation: {x: 0, y: 0, z: 0, w: 1}
  m_LocalPosition: {x: 0, y: 0, z: 0}
  m_LocalScale: {x: 1, y: 1, z: 1}
  m_Children: []
  m_Father: {fileID: 0}
  m_RootOrder: 0
--- !u!1002 &400001
EditorExtensionImpl:
  serializedVersion: 6
--- !u!114 &11400000
MonoBehaviour:
  m_ObjectHideFlags: 1
  m_PrefabParentObject: {fileID: 0}
  m_PrefabInternal: {fileID: 100100000}
  m_GameObject: {fileID: 100000}
  m_Enabled: 1
  m_EditorHideFlags: 0
  m_Script: {fileID: 11500000, guid: 9b4007f1233a9b74fa9be42583fafba6, type: 3}
  m_Name: 
  m_EditorClassIdentifier: 
  size: 10
  color: {r: .543298721, g: .721568644, b: .597921848, a: .388235301}
  explodeOnStart: 1
  duration: 5.35797834
  detail: 1
  upwardsBias: 0
  destroyTime: 10.520339
  useWorldSpace: 1
  direction: {x: 0, y: .239999995, z: 0}
  fireballAMaterial: {fileID: 0}
  fireballBMaterial: {fileID: 0}
  smokeAMaterial: {fileID: 0}
  smokeBMaterial: {fileID: 0}
  shockwaveMaterial: {fileID: 0}
  sparksMaterial: {fileID: 0}
  glowMaterial: {fileID: 0}
  heatwaveMaterial: {fileID: 0}
  autoCreateFireball: 1
  autoCreateSparks: 1
  autoCreateShockwave: 1
  autoCreateSmoke: 1
  autoCreateGlow: 1
  autoCreateLight: 1
  autoCreateForce: 1
  autoCreateHeatwave: 1
--- !u!1002 &11400001
EditorExtensionImpl:
  serializedVersion: 6
--- !u!114 &11400002
MonoBehaviour:
  m_ObjectHideFlags: 1
  m_PrefabParentObject: {fileID: 0}
  m_PrefabInternal: {fileID: 100100000}
  m_GameObject: {fileID: 100000}
  m_Enabled: 1
  m_EditorHideFlags: 0
  m_Script: {fileID: 11500000, guid: f7134859da924a14b9de2f13721402b1, type: 3}
  m_Name: 
  m_EditorClassIdentifier: 
  on: 1
  detonatorControlled: 1
  startSize: 1
  size: .94599247
  explodeDelayMin: 0
  explodeDelayMax: 0
  startDuration: 2
  duration: 4
  timeScale: 1
  startDetail: 1
  detail: 1
  startColor: {r: 1, g: 1, b: 1, a: 1}
  color: {r: 1, g: 1, b: 1, a: 1}
  startLocalPosition: {x: 0, y: 0, z: 0}
  localPosition: {x: 0, y: 0, z: 0}
  startForce: {x: 0, y: 0, z: 0}
  force: {x: 0, y: 0, z: 0}
  startVelocity: {x: 0, y: 0, z: 0}
  velocity: {x: 100, y: 100, z: 100}
  detailThreshold: 0
  sprayObject: {fileID: 100004, guid: 5cae1a02f5362443284e452c3020967f, type: 2}
  count: 33
  startingRadius: 5
  minScale: .200491905
  maxScale: .538931429
--- !u!1002 &11400003
EditorExtensionImpl:
  serializedVersion: 6
--- !u!114 &11400004
MonoBehaviour:
  m_ObjectHideFlags: 1
  m_PrefabParentObject: {fileID: 0}
  m_PrefabInternal: {fileID: 100100000}
  m_GameObject: {fileID: 100000}
  m_Enabled: 1
  m_EditorHideFlags: 0
  m_Script: {fileID: 11500000, guid: e0a30e21f576d054695cb3804fce8a9d, type: 3}
  m_Name: 
  m_EditorClassIdentifier: 
  on: 1
  detonatorControlled: 1
  startSize: 1
  size: 2
  explodeDelayMin: 0
  explodeDelayMax: 0
  startDuration: 2
  duration: .300000012
  timeScale: 1
  startDetail: 1
  detail: 1
  startColor: {r: 1, g: 1, b: 1, a: 1}
  color: {r: 1, g: 1, b: 1, a: 1}
  startLocalPosition: {x: 0, y: 0, z: 0}
  localPosition: {x: 0, y: 0, z: 0}
  startForce: {x: 0, y: 0, z: 0}
  force: {x: 0, y: 0, z: 0}
  startVelocity: {x: 0, y: 0, z: 0}
  velocity: {x: 0, y: 0, z: 0}
  detailThreshold: .889508247
  zOffset: .97655946
  distortion: 38.1501846
  heatwaveMaterial: {fileID: 0}
--- !u!1002 &11400005
EditorExtensionImpl:
  serializedVersion: 6
--- !u!114 &11400006
MonoBehaviour:
  m_ObjectHideFlags: 1
  m_PrefabParentObject: {fileID: 0}
  m_PrefabInternal: {fileID: 100100000}
  m_GameObject: {fileID: 100000}
  m_Enabled: 1
  m_EditorHideFlags: 0
  m_Script: {fileID: 11500000, guid: 1154a16e40ae84e42b591529ea211201, type: 3}
  m_Name: 
  m_EditorClassIdentifier: 
  on: 1
  detonatorControlled: 1
  startSize: 1
  size: 1
  explodeDelayMin: 0
  explodeDelayMax: 0
  startDuration: 2
  duration: 1
  timeScale: 1
  startDetail: 1
  detail: 14.7874298
  startColor: {r: 1, g: 1, b: 1, a: 1}
  color: {r: .930769205, g: .713143289, b: .713143289, a: 1}
  startLocalPosition: {x: 0, y: 0, z: 0}
  localPosition: {x: 0, y: 0, z: 0}
  startForce: {x: 0, y: 0, z: 0}
  force: {x: 0, y: -9.81000042, z: 0}
  startVelocity: {x: 0, y: 0, z: 0}
  velocity: {x: 400, y: 400, z: 400}
  detailThreshold: 0
  sparksMaterial: {fileID: 0}
--- !u!1002 &11400007
EditorExtensionImpl:
  serializedVersion: 6
--- !u!114 &11400008
MonoBehaviour:
  m_ObjectHideFlags: 1
  m_PrefabParentObject: {fileID: 0}
  m_PrefabInternal: {fileID: 100100000}
  m_GameObject: {fileID: 100000}
  m_Enabled: 1
  m_EditorHideFlags: 0
  m_Script: {fileID: 11500000, guid: 745312967000e3c449713c45a6a516f2, type: 3}
  m_Name: 
  m_EditorClassIdentifier: 
  on: 0
  detonatorControlled: 1
  startSize: 1
  size: 4.98109627
  explodeDelayMin: 0
  explodeDelayMax: 0
  startDuration: 2
  duration: .25
  timeScale: 1
  startDetail: 1
  detail: 1
  startColor: {r: 1, g: 1, b: 1, a: 1}
  color: {r: 1, g: 1, b: 1, a: 1}
  startLocalPosition: {x: 0, y: 0, z: 0}
  localPosition: {x: 0, y: 1.07999957, z: 0}
  startForce: {x: 0, y: 0, z: 0}
  force: {x: 0, y: 0, z: 0}
  startVelocity: {x: 0, y: 0, z: 0}
  velocity: {x: 0, y: 0, z: 0}
  detailThreshold: 0
  shockwaveMaterial: {fileID: 0}
  renderMode: 4
--- !u!1002 &11400009
EditorExtensionImpl:
  serializedVersion: 6
--- !u!114 &11400010
MonoBehaviour:
  m_ObjectHideFlags: 1
  m_PrefabParentObject: {fileID: 0}
  m_PrefabInternal: {fileID: 100100000}
  m_GameObject: {fileID: 100000}
  m_Enabled: 1
  m_EditorHideFlags: 0
  m_Script: {fileID: 11500000, guid: edba693a4a231da4e9434948a5dec7ee, type: 3}
  m_Name: 
  m_EditorClassIdentifier: 
  on: 1
  detonatorControlled: 1
  startSize: 1
  size: 1
  explodeDelayMin: .0299999882
  explodeDelayMax: .119999975
  startDuration: 2
  duration: 2.27267694
  timeScale: 1
  startDetail: 1
  detail: 1.2099998
  startColor: {r: 1, g: 1, b: 1, a: 1}
  color: {r: 1, g: .889996409, b: .809352517, a: .219607845}
  startLocalPosition: {x: 0, y: 0, z: 0}
  localPosition: {x: 0, y: 0, z: 0}
  startForce: {x: 0, y: 0, z: 0}
  force: {x: 0, y: 0, z: 0}
  startVelocity: {x: 0, y: 0, z: 0}
  velocity: {x: 50, y: 50, z: 50}
  detailThreshold: 0
  fireballAMaterial: {fileID: 0}
  fireballBMaterial: {fileID: 0}
  fireShadowMaterial: {fileID: 0}
  drawFireballA: 1
  drawFireballB: 1
  drawFireShadow: 1
--- !u!1002 &11400011
EditorExtensionImpl:
  serializedVersion: 6
--- !u!114 &11400012
MonoBehaviour:
  m_ObjectHideFlags: 1
  m_PrefabParentObject: {fileID: 0}
  m_PrefabInternal: {fileID: 100100000}
  m_GameObject: {fileID: 100000}
  m_Enabled: 1
  m_EditorHideFlags: 0
  m_Script: {fileID: 11500000, guid: edba693a4a231da4e9434948a5dec7ee, type: 3}
  m_Name: 
  m_EditorClassIdentifier: 
  on: 1
  detonatorControlled: 1
  startSize: 1
  size: 1
  explodeDelayMin: 0
  explodeDelayMax: 0
  startDuration: 2
  duration: 1
  timeScale: 1
  startDetail: 1
  detail: 1
  startColor: {r: 1, g: 1, b: 1, a: 1}
  color: {r: 1, g: .423000008, b: 0, a: .5}
  startLocalPosition: {x: 0, y: 0, z: 0}
  localPosition: {x: 0, y: 0, z: 0}
  startForce: {x: 0, y: 0, z: 0}
  force: {x: 0, y: 0, z: 0}
  startVelocity: {x: 0, y: 0, z: 0}
  velocity: {x: 50, y: 50, z: 50}
  detailThreshold: 0
  fireballAMaterial: {fileID: 0}
  fireballBMaterial: {fileID: 0}
  fireShadowMaterial: {fileID: 0}
  drawFireballA: 1
  drawFireballB: 1
  drawFireShadow: 1
--- !u!1002 &11400013
EditorExtensionImpl:
  serializedVersion: 6
--- !u!114 &11400014
MonoBehaviour:
  m_ObjectHideFlags: 1
  m_PrefabParentObject: {fileID: 0}
  m_PrefabInternal: {fileID: 100100000}
  m_GameObject: {fileID: 100000}
  m_Enabled: 1
  m_EditorHideFlags: 0
  m_Script: {fileID: 11500000, guid: f7134859da924a14b9de2f13721402b1, type: 3}
  m_Name: 
  m_EditorClassIdentifier: 
  on: 1
  detonatorControlled: 1
  startSize: 1
  size: 1.01489055
  explodeDelayMin: .0599999949
  explodeDelayMax: .114655629
  startDuration: 2
  duration: 2.8129859
  timeScale: 1
  startDetail: 1
  detail: 1
  startColor: {r: 1, g: 1, b: 1, a: 1}
  color: {r: 1, g: 1, b: 1, a: 1}
  startLocalPosition: {x: 0, y: 0, z: 0}
  localPosition: {x: 0, y: 0, z: 0}
  startForce: {x: 0, y: 0, z: 0}
  force: {x: 0, y: 0, z: 0}
  startVelocity: {x: 0, y: 0, z: 0}
  velocity: {x: 300, y: 300, z: 300}
  detailThreshold: 0
  sprayObject: {fileID: 100000, guid: abdc837d9a07acd409959e581ef68e61, type: 2}
  count: 8
  startingRadius: 4.24103928
  minScale: 1
  maxScale: 1
--- !u!1002 &11400015
EditorExtensionImpl:
  serializedVersion: 6
--- !u!114 &11400016
MonoBehaviour:
  m_ObjectHideFlags: 1
  m_PrefabParentObject: {fileID: 0}
  m_PrefabInternal: {fileID: 100100000}
  m_GameObject: {fileID: 100000}
  m_Enabled: 1
  m_EditorHideFlags: 0
  m_Script: {fileID: 11500000, guid: b2b0ca7171ed55c4eaaf9aba39d05e87, type: 3}
  m_Name: 
  m_EditorClassIdentifier: 
  on: 1
  detonatorControlled: 1
  startSize: 1
  size: 1
  explodeDelayMin: 0
  explodeDelayMax: 0
  startDuration: 2
  duration: 2
  timeScale: 1
  startDetail: 1
  detail: 1
  startColor: {r: 1, g: 1, b: 1, a: 1}
  color: {r: 1, g: 1, b: 1, a: 1}
  startLocalPosition: {x: 0, y: 0, z: 0}
  localPosition: {x: 0, y: 0, z: 0}
  startForce: {x: 0, y: 0, z: 0}
  force: {x: 0, y: 0, z: 0}
  startVelocity: {x: 0, y: 0, z: 0}
  velocity: {x: 0, y: 0, z: 0}
  detailThreshold: 0
  nearSounds:
  - {fileID: 8300000, guid: 1792989a5a33779428d2dbe9a9430605, type: 3}
  - {fileID: 8300000, guid: 395ebd3d6fca1ec40a6b3c7415c1edb7, type: 3}
  farSounds:
  - {fileID: 8300000, guid: 8f03951fee9bec9478d1ec979ba44677, type: 3}
  - {fileID: 8300000, guid: 33cd429e81395944088573e40e271f18, type: 3}
  distanceThreshold: 50
  minVolume: .400000006
  maxVolume: 1
  rolloffFactor: .5
--- !u!1002 &11400017
EditorExtensionImpl:
  serializedVersion: 6
--- !u!114 &11468200
MonoBehaviour:
  m_ObjectHideFlags: 1
  m_PrefabParentObject: {fileID: 0}
  m_PrefabInternal: {fileID: 100100000}
  m_GameObject: {fileID: 100000}
  m_Enabled: 1
  m_EditorHideFlags: 0
  m_Script: {fileID: 11500000, guid: aa584fbee541324448dd18d8409c7a41, type: 3}
  m_Name: 
  m_EditorClassIdentifier: 
  subId: 0
  ownerId: 0
  group: 0
  prefixBackup: -1
  observed: {fileID: 0}
  synchronization: 0
  onSerializeTransformOption: 3
  onSerializeRigidBodyOption: 2
  instantiationId: 0
--- !u!1001 &100100000
Prefab:
  m_ObjectHideFlags: 1
  serializedVersion: 2
  m_Modification:
    m_TransformParent: {fileID: 0}
    m_Modifications: []
    m_RemovedComponents: []
  m_ParentPrefab: {fileID: 0}
  m_RootGameObject: {fileID: 100000}
  m_IsPrefabParent: 1
  m_IsExploded: 1
--- !u!1002 &100100001
EditorExtensionImpl:
  serializedVersion: 6
