%YAML 1.1
%TAG !u! tag:unity3d.com,2011:
--- !u!114 &11400000
MonoBehaviour:
  m_ObjectHideFlags: 0
  m_PrefabParentObject: {fileID: 0}
  m_PrefabInternal: {fileID: 0}
  m_GameObject: {fileID: 0}
  m_Enabled: 1
  m_EditorHideFlags: 0
  m_Script: {fileID: 11500000, guid: 9c787b8111bd1e74f85be3f15b814252, type: 3}
  m_Name: Ammo
  m_EditorClassIdentifier: 
  sheets:
  - name: ammo
    list:
    - id: 1
      name: 9mm PARA
      ammo: 20
      mag: -1
      bullet_type: 9mm
      brief: "\u4E16\u754C\u4E2D\u3067\u5E45\u5E83\u304F\u4F7F\u308F\u308C\u308B\u62F3\u9283\u5F3E\u3002\u30D1\u30E9\u30D9\u30E9\u30E0\u306F\u30E9\u30C6\u30F3\u8A9E\u306E\u8AFA\u304C\u7531\u6765\u3002"
    - id: 2
      name: .45Automatic colt pistol
      ammo: 15
      mag: -1
      bullet_type: .45ACP
      brief: "\u5408\u8846\u56FD\u3092\u4EE3\u8868\u3059\u308B\u62F3\u9283\u5F3E\u3002\u6253\u6483\u529B\u306B\u9577\u3051\u3001\u6D88\u97F3\u5668\u3068\u306E\u76F8\u6027\u3082\u826F\u3044\u3002"
    - id: 3
      name: .22Long Rifle
      ammo: 40
      mag: -1
      bullet_type: .22LR
      brief: "\u7CBE\u5BC6\u5C04\u6483\u3067\u5E83\u304F\u4F7F\u308F\u308C\u308B\u5C0F\u53E3\u5F84\u5F3E\u3002\u4F4E\u53CD\u52D5\u3067\u6D88\u97F3\u6027\u306B\u3082\u512A\u308C\u308B\u3002"
    - id: 4
      name: .44Remington
      ammo: 10
      mag: -1
      bullet_type: .44magnum
      brief: "\u72E9\u731F\u5411\u3051\u306B\u8ABF\u6574\u3055\u308C\u305F\u30CF\u30F3\u30C9\u30ED\u30FC\u30C9\u5F3E\u3092\u8D77\u6E90\u3068\u3059\u308B\u3001\u5927\u53E3\u5F84\u62F3\u9283\u5F3E\u3002"
    - id: 5
      name: .357 S&W
      ammo: 10
      mag: -1
      bullet_type: .357mag
      brief: "\u8B77\u8EAB\u7528\u3001\u4E2D\u30FB\u5C0F\u578B\u7363\u306E\u72E9\u731F\u7528\u3068\u3057\u3066\u591A\u304F\u51FA\u56DE\u3063\u3066\u3044\u308B\u30DE\u30B0\u30CA\u30E0\u5F3E\u3002"
    - id: 6
      name: 5.56x45mm
      ammo: 15
      mag: -1
      bullet_type: 5.56mm
      brief: "\u591A\u304F\u306E\u9283\u3067\u4F7F\u7528\u3067\u304D\u308B\u3001\u4E2D\u8DDD\u96E2\u6226\u95D8\u5411\u3051\u306E\u30E9\u30A4\u30D5\u30EB\u5F3E\u3002"
    - id: 7
      name: .600Nitro Express
      ammo: 10
      mag: -1
      bullet_type: .600NE
      brief: "\u8C61\u3092\u4ED5\u7559\u3081\u308B\u305F\u3081\u306B\u4F5C\u3089\u308C\u305F\u3001.60\u53E3\u5F84\u306E\u30DE\u30B0\u30CA\u30E0\u5F3E\u3002"
    - id: 8
      name: .50Action Express
      ammo: 10
      mag: -1
      bullet_type: .50AE
      brief: "\u30DE\u30B0\u30CA\u30E0\u5F3E\u306E\u4EE3\u8868\u683C\u3002\u5B9F\u7528\u30AA\u30FC\u30C8\u30DE\u30C1\u30C3\u30AF\u62F3\u9283\u5F3E\u3067\u306F\u6700\u3082\u7834\u58CA\u529B\u304C\u5927\u304D\u3044\u3002"
    - id: 9
      name: .38Special
      ammo: 15
      mag: -1
      bullet_type: .38Spc
      brief: "\u53E4\u304F\u304B\u3089\u4F7F\u308F\u308C\u308B\u62F3\u9283\u5F3E\u3002\u4F4E\u53CD\u52D5\u3001\u826F\u7CBE\u5EA6\u306A\u305F\u3081\u4EBA\u6C17\u304C\u9AD8\u3044\u3002"
    - id: 10
      name: "7.62\u339Cx39"
      ammo: 20
      mag: -1
      bullet_type: "7.62\u339Cx39"
      brief: "\u30BD\u9023\u88FD\u30A2\u30B5\u30EB\u30C8\u30E9\u30A4\u30D5\u30EB\u3067\u4F7F\u308F\u308C\u308B\u30E9\u30A4\u30D5\u30EB\u5F3E\u85AC\u3002"
    - id: 11
      name: .308winchester
      ammo: 10
      mag: -1
      bullet_type: "7.62\u339Cx51"
      brief: "\u6C11\u9593\u3067\u3082\u4F7F\u308F\u308C\u308B\u3001\u30D0\u30C8\u30EB\u30E9\u30A4\u30D5\u30EB\u7528\u5F3E\u85AC\u3002\u72D9\u6483\u7528\u3068\u3057\u3066\u3082\u5E83\u304F\u4F7F\u308F\u308C\u3066\u3044\u308B\u3002"
    - id: 12
      name: 5.7x28mm
      ammo: 25
      mag: -1
      bullet_type: 5.7x28mm
      brief: "\u5BFE\u30DC\u30C7\u30A3\u30A2\u30FC\u30DE\u30FC\u7528\u306B\u958B\u767A\u3055\u308C\u305F\u3001\u62F3\u9283\u5F3E\u3002\u30C6\u30ED\u5BFE\u7B56\u5411\u3051\u306E\u9283\u3067\u4F7F\u308F\u308C\u308B\u3002"
    - id: 13
      name: 6mmx35
      ammo: 15
      mag: -1
      bullet_type: 6mmx35
      brief: "KAC PDW\u30E9\u30A4\u30D5\u30EB\u7528\u306B\u958B\u767A\u3055\u308C\u305F\u3001\u8FD1\u63A5\u6226\u95D8\u5411\u304D\u306E\u5C02\u7528\u5F3E\u3002"
    - id: 14
      name: 12Gage 00back
      ammo: 10
      mag: -1
      bullet_type: 12GAGE
      brief: "\u6570\u7C92\u306E\u925B\u7389\u3092\u8A70\u3081\u305F\u3001\u30B7\u30E7\u30C3\u30C8\u30AC\u30F3\u7528\u306E\u5F3E\u85AC\u3002"
    - id: 15
      name: 12Gage Slug
      ammo: 10
      mag: -1
      bullet_type: SlugShot
      brief: "1\u3064\u306E\u5927\u304D\u306A\u5F3E\u3092\u5185\u5305\u3059\u308B\u3001\u30B7\u30E7\u30C3\u30C8\u30AC\u30F3\u7528\u5F3E\u85AC\u3002"
    - id: 16
      name: 10Gage 00back
      ammo: 5
      mag: -1
      bullet_type: 10GAGE
      brief: "\u5927\u53E3\u5F84\u6563\u5F3E\u9283\u7528\u306E\u30B7\u30E7\u30C3\u30C8\u30B7\u30A7\u30EB\u3002"
    - id: 17
      name: 7.62x54mmR
      ammo: 10
      mag: -1
      bullet_type: 7.62mmx54R
      brief: "\u30ED\u30B7\u30A2\u88FD\u306E\u30E9\u30A4\u30D5\u30EB\u306B\u4F7F\u308F\u308C\u308B\u5F3E\u85AC\u3002\u8ECD\u7528\u3068\u3057\u3066\u3082\u6C11\u9593\u7528\u3068\u3057\u3066\u3082\u4EBA\u6C17\u304C\u9AD8\u3044\u3002"
    - id: 18
      name: 12.7mmx99BMG
      ammo: 5
      mag: -1
      bullet_type: 12.7mmx99
      brief: "\u91CD\u6A5F\u95A2\u9283\u3084\u5BFE\u7269\u30E9\u30A4\u30D5\u30EB\u306B\u4F7F\u7528\u3055\u308C\u308B\u5927\u53E3\u5F84\u5F3E\u3002"
    - id: 19
      name: .338 Lapua Magnum
      ammo: 5
      mag: -1
      bullet_type: 338lapua
      brief: "\u9577\u8DDD\u96E2\u72D9\u6483\u3001\u5927\u578B\u7363\u72E9\u731F\u7528\u306B\u958B\u767A\u3055\u308C\u305F\u3001\u5927\u53E3\u5F84\u72D9\u6483\u30E9\u30A4\u30D5\u30EB\u5F3E\u3002"
    - id: 20
      name: .408chaytac
      ammo: 5
      mag: -1
      bullet_type: .408chaytac
      brief: "2\u30AD\u30ED\u3092\u8D85\u3048\u308B\u9577\u5C04\u7A0B\u3092\u5B9F\u73FE\u3059\u308B\u3001\u72D9\u6483\u7528\u30E9\u30A4\u30D5\u30EB\u5F3E\u3002"
    - id: 21
      name: 40mm LV Grenade
      ammo: 3
      mag: -1
      bullet_type: 40mm
      brief: "\u30B0\u30EC\u30CD\u30FC\u30C9\u30E9\u30F3\u30C1\u30E3\u30FC\u7528\u306E\u6A19\u6E96\u7684\u306A\u70B8\u88C2\u5F3E\u3002\u7740\u5F3E\u3068\u540C\u6642\u306B\u7206\u767A\u3059\u308B\u3002"
    - id: 22
      name: PG-7VR HEAT
      ammo: 1
      mag: -1
      bullet_type: RPG-HEAT
      brief: "RPG-7\u3084USA Mk777\u3067\u4F7F\u7528\u3055\u308C\u308B\u5BFE\u6226\u8ECA\u6210\u578B\u70B8\u85AC\u5F3E\u3002"
    - id: 23
      name: 66mm HEAT
      ammo: 1
      mag: -1
      bullet_type: HEAT
      brief: "\u5BFE\u6226\u8ECA\u7528\u306E\u30ED\u30B1\u30C3\u30C8\u5F3E\u3002\u73FE\u7528\u6226\u8ECA\u306B\u306F\u52B9\u679C\u304C\u8584\u3044\u304C\u3001\u8EFD\u8ECA\u4E21\u306B\u306F\u6709\u52B9\u3002"
    - id: 24
      name: 1911 mag
      ammo: -1
      mag: 1
      bullet_type: .45ACP
      brief: "M1911\u306A\u3069\u306B\u4F7F\u7528\u3059\u308B45\u53E3\u5F84\u5F3E\u306E\u30DE\u30AC\u30B8\u30F3\u3002"
    - id: 25
      name: Glock95 mag
      ammo: -1
      mag: 1
      bullet_type: .22LR
      brief: "Glock\u7528\u306E22\u53E3\u5F84\u30DE\u30AC\u30B8\u30F3\u3002"
    - id: 26
      name: beretta mag
      ammo: -1
      mag: 1
      bullet_type: 9mm
      brief: "\u30D9\u30EC\u30C3\u30BF\u793E\u306E9mm\u62F3\u9283\u7528\u30DE\u30AC\u30B8\u30F3\u3002"
    - id: 27
      name: Cz mag
      ammo: -1
      mag: 1
      bullet_type: 9mm
      brief: "C\uFF5A\u30B7\u30EA\u30FC\u30BA\u7528\u306E9mm\u5F3E\u30DE\u30AC\u30B8\u30F3\u3002"
    - id: 28
      name: sauer mag
      ammo: -1
      mag: 1
      bullet_type: 9mm
      brief: "SIG sauer P22\u30B7\u30EA\u30FC\u30BA\u3067\u4F7F\u308F\u308C\u308B9mm\u5F3E\u306E\u30DE\u30AC\u30B8\u30F3\u3002"
    - id: 29
      name: USP.45 mag
      ammo: -1
      mag: 1
      bullet_type: .45ACP
      brief: "USP\u306E45\u53E3\u5F84\u7528\u30DE\u30AC\u30B8\u30F3\u3002"
    - id: 30
      name: D.E.mag
      ammo: -1
      mag: 1
      bullet_type: .50AE
      brief: "\u30C7\u30B6\u30FC\u30C8\u30A4\u30FC\u30B0\u30EB\u306E50\u53E3\u5F84\u7528\u30DE\u30AC\u30B8\u30F3\u3002"
    - id: 31
      name: Stanag mag
      ammo: -1
      mag: 1
      bullet_type: 5.56mm
      brief: "\u591A\u304F\u306E\u30A2\u30B5\u30EB\u30C8\u30E9\u30A4\u30D5\u30EB\u3067\u5171\u7528\u3067\u304D\u308B5.56mm\u5F3E\u306E\u30DE\u30AC\u30B8\u30F3\u3002"
    - id: 32
      name: AKM mag
      ammo: -1
      mag: 1
      bullet_type: "7.62\u339Cx39"
      brief: "AK\u30B7\u30EA\u30FC\u30BA\u3067\u4F7F\u308F\u308C\u308B\u30017.62\u339Cx39\u5F3E\u306E\u30DE\u30AC\u30B8\u30F3\u3002"
    - id: 33
      name: M14 mag
      ammo: -1
      mag: 1
      bullet_type: "7.62\u339Cx51"
      brief: "M14\u30B7\u30EA\u30FC\u30BA\u3067\u4F7F\u308F\u308C\u308B\u30017.62\u339Cx51\u5F3E\u306E20\u9023\u30DE\u30AC\u30B8\u30F3\u3002"
    - id: 34
      name: AK101 mag
      ammo: -1
      mag: 1
      bullet_type: 5.56mm
      brief: "AK\u30B7\u30EA\u30FC\u30BA\u306E\u4E00\u90E8\u3067\u4F7F\u308F\u308C\u308B\u30015.56\u339C\u5F3E\u306E\u30DE\u30AC\u30B8\u30F3\u3002"
    - id: 35
      name: FAL mag
      ammo: -1
      mag: 1
      bullet_type: "7.62\u339Cx51"
      brief: "FAL\u7528\u306E\u30DE\u30AC\u30B8\u30F3\u30027.62\u339Cx51\u5F3E\u3092\u4F7F\u7528\u3059\u308B\u3002"
    - id: 36
      name: TMP mag
      ammo: -1
      mag: 1
      bullet_type: 9mm
      brief: "TMP\u30B7\u30EA\u30FC\u30BA\u3067\u4F7F\u308F\u308C\u308B9mm\u5F3E\u306E\u30DE\u30AC\u30B8\u30F3\u3002"
    - id: 37
      name: Inglam mag
      ammo: -1
      mag: 1
      bullet_type: .45ACP
      brief: "Inglam M10\u3067\u4F7F\u308F\u308C\u308B45\u53E3\u5F84\u306E20\u9023\u30B7\u30E7\u30FC\u30C8\u30DE\u30AC\u30B8\u30F3\u3002"
    - id: 38
      name: UMP mag
      ammo: -1
      mag: 1
      bullet_type: .45ACP
      brief: "UMP\u3067\u4F7F\u7528\u3059\u308B45\u53E3\u5F84\u5F3E\u306E\u30DE\u30AC\u30B8\u30F3\u3002"
    - id: 39
      name: P90 mag
      ammo: -1
      mag: 1
      bullet_type: 5.7x28mm
      brief: "P90\u5C02\u7528\u306E\u3001\u72EC\u7279\u306A\u5F62\u72B6\u3092\u3057\u305F\u30DE\u30AC\u30B8\u30F3\u30025.7x28mm\u5F3E\u3092\u4F7F\u3046\u3002"
    - id: 40
      name: Spectra mag
      ammo: -1
      mag: 1
      bullet_type: 9mm
      brief: "\u3000"
    - id: 41
      name: UZI mag
      ammo: -1
      mag: 1
      bullet_type: 9mm
      brief: "\u3000"
    - id: 42
      name: TEC mag
      ammo: -1
      mag: 1
      bullet_type: 9mm
      brief: "\u3000"
    - id: 43
      name: KAC mag
      ammo: -1
      mag: 1
      bullet_type: 6mmx35
      brief: "\u3000"
    - id: 44
      name: USAS mag
      ammo: -1
      mag: 1
      bullet_type: 12GAGE
      brief: "\u3000"
    - id: 45
      name: AKL mag
      ammo: -1
      mag: 1
      bullet_type: "7.62\u339Cx39"
      brief: "\u3000"
    - id: 46
      name: MINIMI mag
      ammo: -1
      mag: 1
      bullet_type: 5.56mm
      brief: "\u3000"
    - id: 47
      name: AKD mag
      ammo: -1
      mag: 1
      bullet_type: "7.62\u339Cx39"
      brief: "\u3000"
    - id: 48
      name: Negev mag
      ammo: -1
      mag: 1
      bullet_type: 5.56mm
      brief: "\u3000"
    - id: 49
      name: MG3 mag
      ammo: -1
      mag: 1
      bullet_type: "7.62\u339Cx51"
      brief: "\u3000"
    - id: 50
      name: M60 mag
      ammo: -1
      mag: 1
      bullet_type: "7.62\u339Cx51"
      brief: "\u3000"
    - id: 51
      name: Dram mag
      ammo: -1
      mag: 1
      bullet_type: 5.56mm
      brief: "\u3000"
    - id: 52
      name: BAR mag
      ammo: -1
      mag: 1
      bullet_type: 7.62mmx63
      brief: "\u3000"
    - id: 53
      name: M700 mag
      ammo: -1
      mag: 1
      bullet_type: "7.62\u339Cx51"
      brief: "\u3000"
    - id: 54
      name: SVD mag
      ammo: -1
      mag: 1
      bullet_type: 7.62mmx54R
      brief: "\u3000"
    - id: 55
      name: PSG-1 mag
      ammo: -1
      mag: 1
      bullet_type: "7.62\u339Cx51"
      brief: "\u3000"
    - id: 56
      name: M82 mag
      ammo: -1
      mag: 1
      bullet_type: 12.7mmx99
      brief: "\u3000"
    - id: 57
      name: SSG08 mag
      ammo: -1
      mag: 1
      bullet_type: 338lapua
      brief: "\u3000"
    - id: 58
      name: M200 mag
      ammo: -1
      mag: 1
      bullet_type: .408chaytac
      brief: "\u3000"
    - id: 59
      name: SV-98 mag
      ammo: -1
      mag: 1
      bullet_type: 7.62mmx54R
      brief: "\u3000"
    - id: 60
      name: R93 mag
      ammo: -1
      mag: 1
      bullet_type: "7.62\u339Cx51"
      brief: "\u3000"
    - id: 61
      name: TPG-1 mag
      ammo: -1
      mag: 1
      bullet_type: 5.56mm
      brief: "\u3000"
    - id: 62
      name: end
      ammo: 0
      mag: 0
      bullet_type: 
      brief: 
