%YAML 1.1
%TAG !u! tag:unity3d.com,2011:
--- !u!74 &7400000
AnimationClip:
  m_ObjectHideFlags: 0
  m_PrefabParentObject: {fileID: 0}
  m_PrefabInternal: {fileID: 0}
  m_Name: downright_leanback.vmd
  serializedVersion: 6
  m_Legacy: 0
  m_Compressed: 0
  m_UseHighQualityCurve: 0
  m_RotationCurves: []
  m_CompressedRotationCurves: []
  m_PositionCurves: []
  m_ScaleCurves: []
  m_FloatCurves:
  - curve:
      serializedVersion: 2
      m_Curve:
      - time: 0
        value: .0159935858
        inSlope: 0
        outSlope: 0
        tangentMode: 0
      - time: .0333333351
        value: .0159935858
        inSlope: 0
        outSlope: 0
        tangentMode: 0
      m_PreInfinity: 2
      m_PostInfinity: 2
    attribute: RootT.x
    path: 
    classID: 95
    script: {fileID: 0}
  - curve:
      serializedVersion: 2
      m_Curve:
      - time: 0
        value: .989563227
        inSlope: 0
        outSlope: 0
        tangentMode: 0
      - time: .0333333351
        value: .989563227
        inSlope: 0
        outSlope: 0
        tangentMode: 0
      m_PreInfinity: 2
      m_PostInfinity: 2
    attribute: RootT.y
    path: 
    classID: 95
    script: {fileID: 0}
  - curve:
      serializedVersion: 2
      m_Curve:
      - time: 0
        value: .0480246767
        inSlope: 0
        outSlope: 0
        tangentMode: 0
      - time: .0333333351
        value: .0480246767
        inSlope: 0
        outSlope: 0
        tangentMode: 0
      m_PreInfinity: 2
      m_PostInfinity: 2
    attribute: RootT.z
    path: 
    classID: 95
    script: {fileID: 0}
  - curve:
      serializedVersion: 2
      m_Curve:
      - time: 0
        value: .199292019
        inSlope: 0
        outSlope: 0
        tangentMode: 0
      - time: .0333333351
        value: .199292019
        inSlope: 0
        outSlope: 0
        tangentMode: 0
      m_PreInfinity: 2
      m_PostInfinity: 2
    attribute: RootQ.x
    path: 
    classID: 95
    script: {fileID: 0}
  - curve:
      serializedVersion: 2
      m_Curve:
      - time: 0
        value: .184347451
        inSlope: 0
        outSlope: 0
        tangentMode: 0
      - time: .0333333351
        value: .184347451
        inSlope: 0
        outSlope: 0
        tangentMode: 0
      m_PreInfinity: 2
      m_PostInfinity: 2
    attribute: RootQ.y
    path: 
    classID: 95
    script: {fileID: 0}
  - curve:
      serializedVersion: 2
      m_Curve:
      - time: 0
        value: -.0403593406
        inSlope: 0
        outSlope: 0
        tangentMode: 0
      - time: .0333333351
        value: -.0403593406
        inSlope: 0
        outSlope: 0
        tangentMode: 0
      m_PreInfinity: 2
      m_PostInfinity: 2
    attribute: RootQ.z
    path: 
    classID: 95
    script: {fileID: 0}
  - curve:
      serializedVersion: 2
      m_Curve:
      - time: 0
        value: .961597562
        inSlope: 0
        outSlope: 0
        tangentMode: 0
      - time: .0333333351
        value: .961597562
        inSlope: 0
        outSlope: 0
        tangentMode: 0
      m_PreInfinity: 2
      m_PostInfinity: 2
    attribute: RootQ.w
    path: 
    classID: 95
    script: {fileID: 0}
  - curve:
      serializedVersion: 2
      m_Curve:
      - time: 0
        value: -.0510235839
        inSlope: 0
        outSlope: 0
        tangentMode: 0
      - time: .0333333351
        value: -.0510235839
        inSlope: 0
        outSlope: 0
        tangentMode: 0
      m_PreInfinity: 2
      m_PostInfinity: 2
    attribute: LeftFootT.x
    path: 
    classID: 95
    script: {fileID: 0}
  - curve:
      serializedVersion: 2
      m_Curve:
      - time: 0
        value: -.977508366
        inSlope: 0
        outSlope: 0
        tangentMode: 0
      - time: .0333333351
        value: -.977508366
        inSlope: 0
        outSlope: 0
        tangentMode: 0
      m_PreInfinity: 2
      m_PostInfinity: 2
    attribute: LeftFootT.y
    path: 
    classID: 95
    script: {fileID: 0}
  - curve:
      serializedVersion: 2
      m_Curve:
      - time: 0
        value: .233823657
        inSlope: 0
        outSlope: 0
        tangentMode: 0
      - time: .0333333351
        value: .233823657
        inSlope: 0
        outSlope: 0
        tangentMode: 0
      m_PreInfinity: 2
      m_PostInfinity: 2
    attribute: LeftFootT.z
    path: 
    classID: 95
    script: {fileID: 0}
  - curve:
      serializedVersion: 2
      m_Curve:
      - time: 0
        value: -.508450747
        inSlope: 0
        outSlope: 0
        tangentMode: 0
      - time: .0333333351
        value: -.508450747
        inSlope: 0
        outSlope: 0
        tangentMode: 0
      m_PreInfinity: 2
      m_PostInfinity: 2
    attribute: LeftFootQ.x
    path: 
    classID: 95
    script: {fileID: 0}
  - curve:
      serializedVersion: 2
      m_Curve:
      - time: 0
        value: .268799394
        inSlope: 0
        outSlope: 0
        tangentMode: 0
      - time: .0333333351
        value: .268799394
        inSlope: 0
        outSlope: 0
        tangentMode: 0
      m_PreInfinity: 2
      m_PostInfinity: 2
    attribute: LeftFootQ.y
    path: 
    classID: 95
    script: {fileID: 0}
  - curve:
      serializedVersion: 2
      m_Curve:
      - time: 0
        value: -.652438879
        inSlope: 0
        outSlope: 0
        tangentMode: 0
      - time: .0333333351
        value: -.652438879
        inSlope: 0
        outSlope: 0
        tangentMode: 0
      m_PreInfinity: 2
      m_PostInfinity: 2
    attribute: LeftFootQ.z
    path: 
    classID: 95
    script: {fileID: 0}
  - curve:
      serializedVersion: 2
      m_Curve:
      - time: 0
        value: .493506163
        inSlope: 0
        outSlope: 0
        tangentMode: 0
      - time: .0333333351
        value: .493506163
        inSlope: 0
        outSlope: 0
        tangentMode: 0
      m_PreInfinity: 2
      m_PostInfinity: 2
    attribute: LeftFootQ.w
    path: 
    classID: 95
    script: {fileID: 0}
  - curve:
      serializedVersion: 2
      m_Curve:
      - time: 0
        value: .139766186
        inSlope: 0
        outSlope: 0
        tangentMode: 0
      - time: .0333333351
        value: .139766186
        inSlope: 0
        outSlope: 0
        tangentMode: 0
      m_PreInfinity: 2
      m_PostInfinity: 2
    attribute: RightFootT.x
    path: 
    classID: 95
    script: {fileID: 0}
  - curve:
      serializedVersion: 2
      m_Curve:
      - time: 0
        value: -.952386498
        inSlope: 0
        outSlope: 0
        tangentMode: 0
      - time: .0333333351
        value: -.952386498
        inSlope: 0
        outSlope: 0
        tangentMode: 0
      m_PreInfinity: 2
      m_PostInfinity: 2
    attribute: RightFootT.y
    path: 
    classID: 95
    script: {fileID: 0}
  - curve:
      serializedVersion: 2
      m_Curve:
      - time: 0
        value: .289716661
        inSlope: 0
        outSlope: 0
        tangentMode: 0
      - time: .0333333351
        value: .289716661
        inSlope: 0
        outSlope: 0
        tangentMode: 0
      m_PreInfinity: 2
      m_PostInfinity: 2
    attribute: RightFootT.z
    path: 
    classID: 95
    script: {fileID: 0}
  - curve:
      serializedVersion: 2
      m_Curve:
      - time: 0
        value: -.508450747
        inSlope: 0
        outSlope: 0
        tangentMode: 0
      - time: .0333333351
        value: -.508450747
        inSlope: 0
        outSlope: 0
        tangentMode: 0
      m_PreInfinity: 2
      m_PostInfinity: 2
    attribute: RightFootQ.x
    path: 
    classID: 95
    script: {fileID: 0}
  - curve:
      serializedVersion: 2
      m_Curve:
      - time: 0
        value: .268799394
        inSlope: 0
        outSlope: 0
        tangentMode: 0
      - time: .0333333351
        value: .268799394
        inSlope: 0
        outSlope: 0
        tangentMode: 0
      m_PreInfinity: 2
      m_PostInfinity: 2
    attribute: RightFootQ.y
    path: 
    classID: 95
    script: {fileID: 0}
  - curve:
      serializedVersion: 2
      m_Curve:
      - time: 0
        value: -.652438879
        inSlope: 0
        outSlope: 0
        tangentMode: 0
      - time: .0333333351
        value: -.652438879
        inSlope: 0
        outSlope: 0
        tangentMode: 0
      m_PreInfinity: 2
      m_PostInfinity: 2
    attribute: RightFootQ.z
    path: 
    classID: 95
    script: {fileID: 0}
  - curve:
      serializedVersion: 2
      m_Curve:
      - time: 0
        value: .493506163
        inSlope: 0
        outSlope: 0
        tangentMode: 0
      - time: .0333333351
        value: .493506163
        inSlope: 0
        outSlope: 0
        tangentMode: 0
      m_PreInfinity: 2
      m_PostInfinity: 2
    attribute: RightFootQ.w
    path: 
    classID: 95
    script: {fileID: 0}
  - curve:
      serializedVersion: 2
      m_Curve:
      - time: 0
        value: -.431151658
        inSlope: 0
        outSlope: 0
        tangentMode: 0
      - time: .0333333351
        value: -.431151658
        inSlope: 0
        outSlope: 0
        tangentMode: 0
      m_PreInfinity: 2
      m_PostInfinity: 2
    attribute: LeftHandT.x
    path: 
    classID: 95
    script: {fileID: 0}
  - curve:
      serializedVersion: 2
      m_Curve:
      - time: 0
        value: .131334156
        inSlope: 0
        outSlope: 0
        tangentMode: 0
      - time: .0333333351
        value: .131334156
        inSlope: 0
        outSlope: 0
        tangentMode: 0
      m_PreInfinity: 2
      m_PostInfinity: 2
    attribute: LeftHandT.y
    path: 
    classID: 95
    script: {fileID: 0}
  - curve:
      serializedVersion: 2
      m_Curve:
      - time: 0
        value: .0193587206
        inSlope: 0
        outSlope: 0
        tangentMode: 0
      - time: .0333333351
        value: .0193587206
        inSlope: 0
        outSlope: 0
        tangentMode: 0
      m_PreInfinity: 2
      m_PostInfinity: 2
    attribute: LeftHandT.z
    path: 
    classID: 95
    script: {fileID: 0}
  - curve:
      serializedVersion: 2
      m_Curve:
      - time: 0
        value: .116880551
        inSlope: 0
        outSlope: 0
        tangentMode: 0
      - time: .0333333351
        value: .116880551
        inSlope: 0
        outSlope: 0
        tangentMode: 0
      m_PreInfinity: 2
      m_PostInfinity: 2
    attribute: LeftHandQ.x
    path: 
    classID: 95
    script: {fileID: 0}
  - curve:
      serializedVersion: 2
      m_Curve:
      - time: 0
        value: -.156852216
        inSlope: 0
        outSlope: 0
        tangentMode: 0
      - time: .0333333351
        value: -.156852216
        inSlope: 0
        outSlope: 0
        tangentMode: 0
      m_PreInfinity: 2
      m_PostInfinity: 2
    attribute: LeftHandQ.y
    path: 
    classID: 95
    script: {fileID: 0}
  - curve:
      serializedVersion: 2
      m_Curve:
      - time: 0
        value: .947700739
        inSlope: 0
        outSlope: 0
        tangentMode: 0
      - time: .0333333351
        value: .947700739
        inSlope: 0
        outSlope: 0
        tangentMode: 0
      m_PreInfinity: 2
      m_PostInfinity: 2
    attribute: LeftHandQ.z
    path: 
    classID: 95
    script: {fileID: 0}
  - curve:
      serializedVersion: 2
      m_Curve:
      - time: 0
        value: -.252189457
        inSlope: 0
        outSlope: 0
        tangentMode: 0
      - time: .0333333351
        value: -.252189457
        inSlope: 0
        outSlope: 0
        tangentMode: 0
      m_PreInfinity: 2
      m_PostInfinity: 2
    attribute: LeftHandQ.w
    path: 
    classID: 95
    script: {fileID: 0}
  - curve:
      serializedVersion: 2
      m_Curve:
      - time: 0
        value: .299341142
        inSlope: 0
        outSlope: 0
        tangentMode: 0
      - time: .0333333351
        value: .299341142
        inSlope: 0
        outSlope: 0
        tangentMode: 0
      m_PreInfinity: 2
      m_PostInfinity: 2
    attribute: RightHandT.x
    path: 
    classID: 95
    script: {fileID: 0}
  - curve:
      serializedVersion: 2
      m_Curve:
      - time: 0
        value: .010564561
        inSlope: 0
        outSlope: 0
        tangentMode: 0
      - time: .0333333351
        value: .010564561
        inSlope: 0
        outSlope: 0
        tangentMode: 0
      m_PreInfinity: 2
      m_PostInfinity: 2
    attribute: RightHandT.y
    path: 
    classID: 95
    script: {fileID: 0}
  - curve:
      serializedVersion: 2
      m_Curve:
      - time: 0
        value: -.285559475
        inSlope: 0
        outSlope: 0
        tangentMode: 0
      - time: .0333333351
        value: -.285559475
        inSlope: 0
        outSlope: 0
        tangentMode: 0
      m_PreInfinity: 2
      m_PostInfinity: 2
    attribute: RightHandT.z
    path: 
    classID: 95
    script: {fileID: 0}
  - curve:
      serializedVersion: 2
      m_Curve:
      - time: 0
        value: .0352293849
        inSlope: 0
        outSlope: 0
        tangentMode: 0
      - time: .0333333351
        value: .0352293849
        inSlope: 0
        outSlope: 0
        tangentMode: 0
      m_PreInfinity: 2
      m_PostInfinity: 2
    attribute: RightHandQ.x
    path: 
    classID: 95
    script: {fileID: 0}
  - curve:
      serializedVersion: 2
      m_Curve:
      - time: 0
        value: .227711543
        inSlope: 0
        outSlope: 0
        tangentMode: 0
      - time: .0333333351
        value: .227711543
        inSlope: 0
        outSlope: 0
        tangentMode: 0
      m_PreInfinity: 2
      m_PostInfinity: 2
    attribute: RightHandQ.y
    path: 
    classID: 95
    script: {fileID: 0}
  - curve:
      serializedVersion: 2
      m_Curve:
      - time: 0
        value: -.43425566
        inSlope: 0
        outSlope: 0
        tangentMode: 0
      - time: .0333333351
        value: -.43425566
        inSlope: 0
        outSlope: 0
        tangentMode: 0
      m_PreInfinity: 2
      m_PostInfinity: 2
    attribute: RightHandQ.z
    path: 
    classID: 95
    script: {fileID: 0}
  - curve:
      serializedVersion: 2
      m_Curve:
      - time: 0
        value: .870820582
        inSlope: 0
        outSlope: 0
        tangentMode: 0
      - time: .0333333351
        value: .870820582
        inSlope: 0
        outSlope: 0
        tangentMode: 0
      m_PreInfinity: 2
      m_PostInfinity: 2
    attribute: RightHandQ.w
    path: 
    classID: 95
    script: {fileID: 0}
  - curve:
      serializedVersion: 2
      m_Curve:
      - time: 0
        value: -.391116232
        inSlope: 0
        outSlope: 0
        tangentMode: 0
      - time: .0333333351
        value: -.391116232
        inSlope: 0
        outSlope: 0
        tangentMode: 0
      m_PreInfinity: 2
      m_PostInfinity: 2
    attribute: Spine Front-Back
    path: 
    classID: 95
    script: {fileID: 0}
  - curve:
      serializedVersion: 2
      m_Curve:
      - time: 0
        value: .165988609
        inSlope: 0
        outSlope: 0
        tangentMode: 0
      - time: .0333333351
        value: .165988609
        inSlope: 0
        outSlope: 0
        tangentMode: 0
      m_PreInfinity: 2
      m_PostInfinity: 2
    attribute: Spine Left-Right
    path: 
    classID: 95
    script: {fileID: 0}
  - curve:
      serializedVersion: 2
      m_Curve:
      - time: 0
        value: .597135663
        inSlope: 0
        outSlope: 0
        tangentMode: 0
      - time: .0333333351
        value: .597135663
        inSlope: 0
        outSlope: 0
        tangentMode: 0
      m_PreInfinity: 2
      m_PostInfinity: 2
    attribute: Spine Twist Left-Right
    path: 
    classID: 95
    script: {fileID: 0}
  - curve:
      serializedVersion: 2
      m_Curve:
      - time: 0
        value: -.386992455
        inSlope: 0
        outSlope: 0
        tangentMode: 0
      - time: .0333333351
        value: -.386992455
        inSlope: 0
        outSlope: 0
        tangentMode: 0
      m_PreInfinity: 2
      m_PostInfinity: 2
    attribute: Chest Front-Back
    path: 
    classID: 95
    script: {fileID: 0}
  - curve:
      serializedVersion: 2
      m_Curve:
      - time: 0
        value: .213007346
        inSlope: 0
        outSlope: 0
        tangentMode: 0
      - time: .0333333351
        value: .213007346
        inSlope: 0
        outSlope: 0
        tangentMode: 0
      m_PreInfinity: 2
      m_PostInfinity: 2
    attribute: Chest Left-Right
    path: 
    classID: 95
    script: {fileID: 0}
  - curve:
      serializedVersion: 2
      m_Curve:
      - time: 0
        value: .541844308
        inSlope: 0
        outSlope: 0
        tangentMode: 0
      - time: .0333333351
        value: .541844308
        inSlope: 0
        outSlope: 0
        tangentMode: 0
      m_PreInfinity: 2
      m_PostInfinity: 2
    attribute: Chest Twist Left-Right
    path: 
    classID: 95
    script: {fileID: 0}
  - curve:
      serializedVersion: 2
      m_Curve:
      - time: 0
        value: 0
        inSlope: 0
        outSlope: 0
        tangentMode: 0
      - time: .0333333351
        value: 0
        inSlope: 0
        outSlope: 0
        tangentMode: 0
      m_PreInfinity: 2
      m_PostInfinity: 2
    attribute: Neck Nod Down-Up
    path: 
    classID: 95
    script: {fileID: 0}
  - curve:
      serializedVersion: 2
      m_Curve:
      - time: 0
        value: -0
        inSlope: 0
        outSlope: 0
        tangentMode: 0
      - time: .0333333351
        value: -0
        inSlope: 0
        outSlope: 0
        tangentMode: 0
      m_PreInfinity: 2
      m_PostInfinity: 2
    attribute: Neck Tilt Left-Right
    path: 
    classID: 95
    script: {fileID: 0}
  - curve:
      serializedVersion: 2
      m_Curve:
      - time: 0
        value: -0
        inSlope: 0
        outSlope: 0
        tangentMode: 0
      - time: .0333333351
        value: -0
        inSlope: 0
        outSlope: 0
        tangentMode: 0
      m_PreInfinity: 2
      m_PostInfinity: 2
    attribute: Neck Turn Left-Right
    path: 
    classID: 95
    script: {fileID: 0}
  - curve:
      serializedVersion: 2
      m_Curve:
      - time: 0
        value: 0
        inSlope: 0
        outSlope: 0
        tangentMode: 0
      - time: .0333333351
        value: 0
        inSlope: 0
        outSlope: 0
        tangentMode: 0
      m_PreInfinity: 2
      m_PostInfinity: 2
    attribute: Head Nod Down-Up
    path: 
    classID: 95
    script: {fileID: 0}
  - curve:
      serializedVersion: 2
      m_Curve:
      - time: 0
        value: -0
        inSlope: 0
        outSlope: 0
        tangentMode: 0
      - time: .0333333351
        value: -0
        inSlope: 0
        outSlope: 0
        tangentMode: 0
      m_PreInfinity: 2
      m_PostInfinity: 2
    attribute: Head Tilt Left-Right
    path: 
    classID: 95
    script: {fileID: 0}
  - curve:
      serializedVersion: 2
      m_Curve:
      - time: 0
        value: -0
        inSlope: 0
        outSlope: 0
        tangentMode: 0
      - time: .0333333351
        value: -0
        inSlope: 0
        outSlope: 0
        tangentMode: 0
      m_PreInfinity: 2
      m_PostInfinity: 2
    attribute: Head Turn Left-Right
    path: 
    classID: 95
    script: {fileID: 0}
  - curve:
      serializedVersion: 2
      m_Curve:
      - time: 0
        value: -0
        inSlope: 0
        outSlope: 0
        tangentMode: 0
      - time: .0333333351
        value: -0
        inSlope: 0
        outSlope: 0
        tangentMode: 0
      m_PreInfinity: 2
      m_PostInfinity: 2
    attribute: Left Eye Down-Up
    path: 
    classID: 95
    script: {fileID: 0}
  - curve:
      serializedVersion: 2
      m_Curve:
      - time: 0
        value: -0
        inSlope: 0
        outSlope: 0
        tangentMode: 0
      - time: .0333333351
        value: -0
        inSlope: 0
        outSlope: 0
        tangentMode: 0
      m_PreInfinity: 2
      m_PostInfinity: 2
    attribute: Left Eye In-Out
    path: 
    classID: 95
    script: {fileID: 0}
  - curve:
      serializedVersion: 2
      m_Curve:
      - time: 0
        value: -0
        inSlope: 0
        outSlope: 0
        tangentMode: 0
      - time: .0333333351
        value: -0
        inSlope: 0
        outSlope: 0
        tangentMode: 0
      m_PreInfinity: 2
      m_PostInfinity: 2
    attribute: Right Eye Down-Up
    path: 
    classID: 95
    script: {fileID: 0}
  - curve:
      serializedVersion: 2
      m_Curve:
      - time: 0
        value: 0
        inSlope: 0
        outSlope: 0
        tangentMode: 0
      - time: .0333333351
        value: 0
        inSlope: 0
        outSlope: 0
        tangentMode: 0
      m_PreInfinity: 2
      m_PostInfinity: 2
    attribute: Right Eye In-Out
    path: 
    classID: 95
    script: {fileID: 0}
  - curve:
      serializedVersion: 2
      m_Curve:
      - time: 0
        value: 0
        inSlope: 0
        outSlope: 0
        tangentMode: 0
      - time: .0333333351
        value: 0
        inSlope: 0
        outSlope: 0
        tangentMode: 0
      m_PreInfinity: 2
      m_PostInfinity: 2
    attribute: Jaw Close
    path: 
    classID: 95
    script: {fileID: 0}
  - curve:
      serializedVersion: 2
      m_Curve:
      - time: 0
        value: 0
        inSlope: 0
        outSlope: 0
        tangentMode: 0
      - time: .0333333351
        value: 0
        inSlope: 0
        outSlope: 0
        tangentMode: 0
      m_PreInfinity: 2
      m_PostInfinity: 2
    attribute: Jaw Left-Right
    path: 
    classID: 95
    script: {fileID: 0}
  - curve:
      serializedVersion: 2
      m_Curve:
      - time: 0
        value: .599291086
        inSlope: 0
        outSlope: 0
        tangentMode: 0
      - time: .0333333351
        value: .599291086
        inSlope: 0
        outSlope: 0
        tangentMode: 0
      m_PreInfinity: 2
      m_PostInfinity: 2
    attribute: Left Upper Leg Front-Back
    path: 
    classID: 95
    script: {fileID: 0}
  - curve:
      serializedVersion: 2
      m_Curve:
      - time: 0
        value: .0068400912
        inSlope: 0
        outSlope: 0
        tangentMode: 0
      - time: .0333333351
        value: .0068400912
        inSlope: 0
        outSlope: 0
        tangentMode: 0
      m_PreInfinity: 2
      m_PostInfinity: 2
    attribute: Left Upper Leg In-Out
    path: 
    classID: 95
    script: {fileID: 0}
  - curve:
      serializedVersion: 2
      m_Curve:
      - time: 0
        value: .0465398692
        inSlope: 0
        outSlope: 0
        tangentMode: 0
      - time: .0333333351
        value: .0465398692
        inSlope: 0
        outSlope: 0
        tangentMode: 0
      m_PreInfinity: 2
      m_PostInfinity: 2
    attribute: Left Upper Leg Twist In-Out
    path: 
    classID: 95
    script: {fileID: 0}
  - curve:
      serializedVersion: 2
      m_Curve:
      - time: 0
        value: .995937049
        inSlope: 0
        outSlope: 0
        tangentMode: 0
      - time: .0333333351
        value: .995937049
        inSlope: 0
        outSlope: 0
        tangentMode: 0
      m_PreInfinity: 2
      m_PostInfinity: 2
    attribute: Left Lower Leg Stretch
    path: 
    classID: 95
    script: {fileID: 0}
  - curve:
      serializedVersion: 2
      m_Curve:
      - time: 0
        value: -.0682183504
        inSlope: 0
        outSlope: 0
        tangentMode: 0
      - time: .0333333351
        value: -.0682183504
        inSlope: 0
        outSlope: 0
        tangentMode: 0
      m_PreInfinity: 2
      m_PostInfinity: 2
    attribute: Left Lower Leg Twist In-Out
    path: 
    classID: 95
    script: {fileID: 0}
  - curve:
      serializedVersion: 2
      m_Curve:
      - time: 0
        value: 2.39056618e-07
        inSlope: 0
        outSlope: 0
        tangentMode: 0
      - time: .0333333351
        value: 2.39056618e-07
        inSlope: 0
        outSlope: 0
        tangentMode: 0
      m_PreInfinity: 2
      m_PostInfinity: 2
    attribute: Left Foot Up-Down
    path: 
    classID: 95
    script: {fileID: 0}
  - curve:
      serializedVersion: 2
      m_Curve:
      - time: 0
        value: -1.18740704e-14
        inSlope: 0
        outSlope: 0
        tangentMode: 0
      - time: .0333333351
        value: -1.18740704e-14
        inSlope: 0
        outSlope: 0
        tangentMode: 0
      m_PreInfinity: 2
      m_PostInfinity: 2
    attribute: Left Foot Twist In-Out
    path: 
    classID: 95
    script: {fileID: 0}
  - curve:
      serializedVersion: 2
      m_Curve:
      - time: 0
        value: 0
        inSlope: 0
        outSlope: 0
        tangentMode: 0
      - time: .0333333351
        value: 0
        inSlope: 0
        outSlope: 0
        tangentMode: 0
      m_PreInfinity: 2
      m_PostInfinity: 2
    attribute: Left Toes Up-Down
    path: 
    classID: 95
    script: {fileID: 0}
  - curve:
      serializedVersion: 2
      m_Curve:
      - time: 0
        value: .600034177
        inSlope: 0
        outSlope: 0
        tangentMode: 0
      - time: .0333333351
        value: .600034177
        inSlope: 0
        outSlope: 0
        tangentMode: 0
      m_PreInfinity: 2
      m_PostInfinity: 2
    attribute: Right Upper Leg Front-Back
    path: 
    classID: 95
    script: {fileID: 0}
  - curve:
      serializedVersion: 2
      m_Curve:
      - time: 0
        value: .002068097
        inSlope: 0
        outSlope: 0
        tangentMode: 0
      - time: .0333333351
        value: .002068097
        inSlope: 0
        outSlope: 0
        tangentMode: 0
      m_PreInfinity: 2
      m_PostInfinity: 2
    attribute: Right Upper Leg In-Out
    path: 
    classID: 95
    script: {fileID: 0}
  - curve:
      serializedVersion: 2
      m_Curve:
      - time: 0
        value: -.0287721809
        inSlope: 0
        outSlope: 0
        tangentMode: 0
      - time: .0333333351
        value: -.0287721809
        inSlope: 0
        outSlope: 0
        tangentMode: 0
      m_PreInfinity: 2
      m_PostInfinity: 2
    attribute: Right Upper Leg Twist In-Out
    path: 
    classID: 95
    script: {fileID: 0}
  - curve:
      serializedVersion: 2
      m_Curve:
      - time: 0
        value: 1.00004828
        inSlope: 0
        outSlope: 0
        tangentMode: 0
      - time: .0333333351
        value: 1.00004828
        inSlope: 0
        outSlope: 0
        tangentMode: 0
      m_PreInfinity: 2
      m_PostInfinity: 2
    attribute: Right Lower Leg Stretch
    path: 
    classID: 95
    script: {fileID: 0}
  - curve:
      serializedVersion: 2
      m_Curve:
      - time: 0
        value: .0198507067
        inSlope: 0
        outSlope: 0
        tangentMode: 0
      - time: .0333333351
        value: .0198507067
        inSlope: 0
        outSlope: 0
        tangentMode: 0
      m_PreInfinity: 2
      m_PostInfinity: 2
    attribute: Right Lower Leg Twist In-Out
    path: 
    classID: 95
    script: {fileID: 0}
  - curve:
      serializedVersion: 2
      m_Curve:
      - time: 0
        value: -1.36603788e-07
        inSlope: 0
        outSlope: 0
        tangentMode: 0
      - time: .0333333351
        value: -1.36603788e-07
        inSlope: 0
        outSlope: 0
        tangentMode: 0
      m_PreInfinity: 2
      m_PostInfinity: 2
    attribute: Right Foot Up-Down
    path: 
    classID: 95
    script: {fileID: 0}
  - curve:
      serializedVersion: 2
      m_Curve:
      - time: 0
        value: -6.78518326e-15
        inSlope: 0
        outSlope: 0
        tangentMode: 0
      - time: .0333333351
        value: -6.78518326e-15
        inSlope: 0
        outSlope: 0
        tangentMode: 0
      m_PreInfinity: 2
      m_PostInfinity: 2
    attribute: Right Foot Twist In-Out
    path: 
    classID: 95
    script: {fileID: 0}
  - curve:
      serializedVersion: 2
      m_Curve:
      - time: 0
        value: 0
        inSlope: 0
        outSlope: 0
        tangentMode: 0
      - time: .0333333351
        value: 0
        inSlope: 0
        outSlope: 0
        tangentMode: 0
      m_PreInfinity: 2
      m_PostInfinity: 2
    attribute: Right Toes Up-Down
    path: 
    classID: 95
    script: {fileID: 0}
  - curve:
      serializedVersion: 2
      m_Curve:
      - time: 0
        value: -.34277916
        inSlope: 0
        outSlope: 0
        tangentMode: 0
      - time: .0333333351
        value: -.34277916
        inSlope: 0
        outSlope: 0
        tangentMode: 0
      m_PreInfinity: 2
      m_PostInfinity: 2
    attribute: Left Shoulder Down-Up
    path: 
    classID: 95
    script: {fileID: 0}
  - curve:
      serializedVersion: 2
      m_Curve:
      - time: 0
        value: -.131568596
        inSlope: 0
        outSlope: 0
        tangentMode: 0
      - time: .0333333351
        value: -.131568596
        inSlope: 0
        outSlope: 0
        tangentMode: 0
      m_PreInfinity: 2
      m_PostInfinity: 2
    attribute: Left Shoulder Front-Back
    path: 
    classID: 95
    script: {fileID: 0}
  - curve:
      serializedVersion: 2
      m_Curve:
      - time: 0
        value: .0934265032
        inSlope: 0
        outSlope: 0
        tangentMode: 0
      - time: .0333333351
        value: .0934265032
        inSlope: 0
        outSlope: 0
        tangentMode: 0
      m_PreInfinity: 2
      m_PostInfinity: 2
    attribute: Left Arm Down-Up
    path: 
    classID: 95
    script: {fileID: 0}
  - curve:
      serializedVersion: 2
      m_Curve:
      - time: 0
        value: .2829988
        inSlope: 0
        outSlope: 0
        tangentMode: 0
      - time: .0333333351
        value: .2829988
        inSlope: 0
        outSlope: 0
        tangentMode: 0
      m_PreInfinity: 2
      m_PostInfinity: 2
    attribute: Left Arm Front-Back
    path: 
    classID: 95
    script: {fileID: 0}
  - curve:
      serializedVersion: 2
      m_Curve:
      - time: 0
        value: -.230419308
        inSlope: 0
        outSlope: 0
        tangentMode: 0
      - time: .0333333351
        value: -.230419308
        inSlope: 0
        outSlope: 0
        tangentMode: 0
      m_PreInfinity: 2
      m_PostInfinity: 2
    attribute: Left Arm Twist In-Out
    path: 
    classID: 95
    script: {fileID: 0}
  - curve:
      serializedVersion: 2
      m_Curve:
      - time: 0
        value: .938545465
        inSlope: 0
        outSlope: 0
        tangentMode: 0
      - time: .0333333351
        value: .938545465
        inSlope: 0
        outSlope: 0
        tangentMode: 0
      m_PreInfinity: 2
      m_PostInfinity: 2
    attribute: Left Forearm Stretch
    path: 
    classID: 95
    script: {fileID: 0}
  - curve:
      serializedVersion: 2
      m_Curve:
      - time: 0
        value: .396570385
        inSlope: 0
        outSlope: 0
        tangentMode: 0
      - time: .0333333351
        value: .396570385
        inSlope: 0
        outSlope: 0
        tangentMode: 0
      m_PreInfinity: 2
      m_PostInfinity: 2
    attribute: Left Forearm Twist In-Out
    path: 
    classID: 95
    script: {fileID: 0}
  - curve:
      serializedVersion: 2
      m_Curve:
      - time: 0
        value: 1.20264724e-15
        inSlope: 0
        outSlope: 0
        tangentMode: 0
      - time: .0333333351
        value: 1.20264724e-15
        inSlope: 0
        outSlope: 0
        tangentMode: 0
      m_PreInfinity: 2
      m_PostInfinity: 2
    attribute: Left Hand Down-Up
    path: 
    classID: 95
    script: {fileID: 0}
  - curve:
      serializedVersion: 2
      m_Curve:
      - time: 0
        value: 5.86969406e-08
        inSlope: 0
        outSlope: 0
        tangentMode: 0
      - time: .0333333351
        value: 5.86969406e-08
        inSlope: 0
        outSlope: 0
        tangentMode: 0
      m_PreInfinity: 2
      m_PostInfinity: 2
    attribute: Left Hand In-Out
    path: 
    classID: 95
    script: {fileID: 0}
  - curve:
      serializedVersion: 2
      m_Curve:
      - time: 0
        value: -.632445455
        inSlope: 0
        outSlope: 0
        tangentMode: 0
      - time: .0333333351
        value: -.632445455
        inSlope: 0
        outSlope: 0
        tangentMode: 0
      m_PreInfinity: 2
      m_PostInfinity: 2
    attribute: Right Shoulder Down-Up
    path: 
    classID: 95
    script: {fileID: 0}
  - curve:
      serializedVersion: 2
      m_Curve:
      - time: 0
        value: -.202697232
        inSlope: 0
        outSlope: 0
        tangentMode: 0
      - time: .0333333351
        value: -.202697232
        inSlope: 0
        outSlope: 0
        tangentMode: 0
      m_PreInfinity: 2
      m_PostInfinity: 2
    attribute: Right Shoulder Front-Back
    path: 
    classID: 95
    script: {fileID: 0}
  - curve:
      serializedVersion: 2
      m_Curve:
      - time: 0
        value: .163403243
        inSlope: 0
        outSlope: 0
        tangentMode: 0
      - time: .0333333351
        value: .163403243
        inSlope: 0
        outSlope: 0
        tangentMode: 0
      m_PreInfinity: 2
      m_PostInfinity: 2
    attribute: Right Arm Down-Up
    path: 
    classID: 95
    script: {fileID: 0}
  - curve:
      serializedVersion: 2
      m_Curve:
      - time: 0
        value: .318314672
        inSlope: 0
        outSlope: 0
        tangentMode: 0
      - time: .0333333351
        value: .318314672
        inSlope: 0
        outSlope: 0
        tangentMode: 0
      m_PreInfinity: 2
      m_PostInfinity: 2
    attribute: Right Arm Front-Back
    path: 
    classID: 95
    script: {fileID: 0}
  - curve:
      serializedVersion: 2
      m_Curve:
      - time: 0
        value: -.374633044
        inSlope: 0
        outSlope: 0
        tangentMode: 0
      - time: .0333333351
        value: -.374633044
        inSlope: 0
        outSlope: 0
        tangentMode: 0
      m_PreInfinity: 2
      m_PostInfinity: 2
    attribute: Right Arm Twist In-Out
    path: 
    classID: 95
    script: {fileID: 0}
  - curve:
      serializedVersion: 2
      m_Curve:
      - time: 0
        value: .935635448
        inSlope: 0
        outSlope: 0
        tangentMode: 0
      - time: .0333333351
        value: .935635448
        inSlope: 0
        outSlope: 0
        tangentMode: 0
      m_PreInfinity: 2
      m_PostInfinity: 2
    attribute: Right Forearm Stretch
    path: 
    classID: 95
    script: {fileID: 0}
  - curve:
      serializedVersion: 2
      m_Curve:
      - time: 0
        value: .604070485
        inSlope: 0
        outSlope: 0
        tangentMode: 0
      - time: .0333333351
        value: .604070485
        inSlope: 0
        outSlope: 0
        tangentMode: 0
      m_PreInfinity: 2
      m_PostInfinity: 2
    attribute: Right Forearm Twist In-Out
    path: 
    classID: 95
    script: {fileID: 0}
  - curve:
      serializedVersion: 2
      m_Curve:
      - time: 0
        value: 4.26886828e-08
        inSlope: 0
        outSlope: 0
        tangentMode: 0
      - time: .0333333351
        value: 4.26886828e-08
        inSlope: 0
        outSlope: 0
        tangentMode: 0
      m_PreInfinity: 2
      m_PostInfinity: 2
    attribute: Right Hand Down-Up
    path: 
    classID: 95
    script: {fileID: 0}
  - curve:
      serializedVersion: 2
      m_Curve:
      - time: 0
        value: -9.60495612e-08
        inSlope: 0
        outSlope: 0
        tangentMode: 0
      - time: .0333333351
        value: -9.60495612e-08
        inSlope: 0
        outSlope: 0
        tangentMode: 0
      m_PreInfinity: 2
      m_PostInfinity: 2
    attribute: Right Hand In-Out
    path: 
    classID: 95
    script: {fileID: 0}
  - curve:
      serializedVersion: 2
      m_Curve:
      - time: 0
        value: -.58504802
        inSlope: 0
        outSlope: 0
        tangentMode: 0
      - time: .0333333351
        value: -.58504802
        inSlope: 0
        outSlope: 0
        tangentMode: 0
      m_PreInfinity: 2
      m_PostInfinity: 2
    attribute: LeftHand.Thumb.1 Stretched
    path: 
    classID: 95
    script: {fileID: 0}
  - curve:
      serializedVersion: 2
      m_Curve:
      - time: 0
        value: .450764716
        inSlope: 0
        outSlope: 0
        tangentMode: 0
      - time: .0333333351
        value: .450764716
        inSlope: 0
        outSlope: 0
        tangentMode: 0
      m_PreInfinity: 2
      m_PostInfinity: 2
    attribute: LeftHand.Thumb.Spread
    path: 
    classID: 95
    script: {fileID: 0}
  - curve:
      serializedVersion: 2
      m_Curve:
      - time: 0
        value: -.0742363855
        inSlope: 0
        outSlope: 0
        tangentMode: 0
      - time: .0333333351
        value: -.0742363855
        inSlope: 0
        outSlope: 0
        tangentMode: 0
      m_PreInfinity: 2
      m_PostInfinity: 2
    attribute: LeftHand.Thumb.2 Stretched
    path: 
    classID: 95
    script: {fileID: 0}
  - curve:
      serializedVersion: 2
      m_Curve:
      - time: 0
        value: .642191768
        inSlope: 0
        outSlope: 0
        tangentMode: 0
      - time: .0333333351
        value: .642191768
        inSlope: 0
        outSlope: 0
        tangentMode: 0
      m_PreInfinity: 2
      m_PostInfinity: 2
    attribute: LeftHand.Thumb.3 Stretched
    path: 
    classID: 95
    script: {fileID: 0}
  - curve:
      serializedVersion: 2
      m_Curve:
      - time: 0
        value: .669684827
        inSlope: 0
        outSlope: 0
        tangentMode: 0
      - time: .0333333351
        value: .669684827
        inSlope: 0
        outSlope: 0
        tangentMode: 0
      m_PreInfinity: 2
      m_PostInfinity: 2
    attribute: LeftHand.Index.1 Stretched
    path: 
    classID: 95
    script: {fileID: 0}
  - curve:
      serializedVersion: 2
      m_Curve:
      - time: 0
        value: -.416647702
        inSlope: 0
        outSlope: 0
        tangentMode: 0
      - time: .0333333351
        value: -.416647702
        inSlope: 0
        outSlope: 0
        tangentMode: 0
      m_PreInfinity: 2
      m_PostInfinity: 2
    attribute: LeftHand.Index.Spread
    path: 
    classID: 95
    script: {fileID: 0}
  - curve:
      serializedVersion: 2
      m_Curve:
      - time: 0
        value: .810352147
        inSlope: 0
        outSlope: 0
        tangentMode: 0
      - time: .0333333351
        value: .810352147
        inSlope: 0
        outSlope: 0
        tangentMode: 0
      m_PreInfinity: 2
      m_PostInfinity: 2
    attribute: LeftHand.Index.2 Stretched
    path: 
    classID: 95
    script: {fileID: 0}
  - curve:
      serializedVersion: 2
      m_Curve:
      - time: 0
        value: .810352147
        inSlope: 0
        outSlope: 0
        tangentMode: 0
      - time: .0333333351
        value: .810352147
        inSlope: 0
        outSlope: 0
        tangentMode: 0
      m_PreInfinity: 2
      m_PostInfinity: 2
    attribute: LeftHand.Index.3 Stretched
    path: 
    classID: 95
    script: {fileID: 0}
  - curve:
      serializedVersion: 2
      m_Curve:
      - time: 0
        value: .666383028
        inSlope: 0
        outSlope: 0
        tangentMode: 0
      - time: .0333333351
        value: .666383028
        inSlope: 0
        outSlope: 0
        tangentMode: 0
      m_PreInfinity: 2
      m_PostInfinity: 2
    attribute: LeftHand.Middle.1 Stretched
    path: 
    classID: 95
    script: {fileID: 0}
  - curve:
      serializedVersion: 2
      m_Curve:
      - time: 0
        value: -.664381444
        inSlope: 0
        outSlope: 0
        tangentMode: 0
      - time: .0333333351
        value: -.664381444
        inSlope: 0
        outSlope: 0
        tangentMode: 0
      m_PreInfinity: 2
      m_PostInfinity: 2
    attribute: LeftHand.Middle.Spread
    path: 
    classID: 95
    script: {fileID: 0}
  - curve:
      serializedVersion: 2
      m_Curve:
      - time: 0
        value: .822634399
        inSlope: 0
        outSlope: 0
        tangentMode: 0
      - time: .0333333351
        value: .822634399
        inSlope: 0
        outSlope: 0
        tangentMode: 0
      m_PreInfinity: 2
      m_PostInfinity: 2
    attribute: LeftHand.Middle.2 Stretched
    path: 
    classID: 95
    script: {fileID: 0}
  - curve:
      serializedVersion: 2
      m_Curve:
      - time: 0
        value: .810236096
        inSlope: 0
        outSlope: 0
        tangentMode: 0
      - time: .0333333351
        value: .810236096
        inSlope: 0
        outSlope: 0
        tangentMode: 0
      m_PreInfinity: 2
      m_PostInfinity: 2
    attribute: LeftHand.Middle.3 Stretched
    path: 
    classID: 95
    script: {fileID: 0}
  - curve:
      serializedVersion: 2
      m_Curve:
      - time: 0
        value: .596470118
        inSlope: 0
        outSlope: 0
        tangentMode: 0
      - time: .0333333351
        value: .596470118
        inSlope: 0
        outSlope: 0
        tangentMode: 0
      m_PreInfinity: 2
      m_PostInfinity: 2
    attribute: LeftHand.Ring.1 Stretched
    path: 
    classID: 95
    script: {fileID: 0}
  - curve:
      serializedVersion: 2
      m_Curve:
      - time: 0
        value: .146295384
        inSlope: 0
        outSlope: 0
        tangentMode: 0
      - time: .0333333351
        value: .146295384
        inSlope: 0
        outSlope: 0
        tangentMode: 0
      m_PreInfinity: 2
      m_PostInfinity: 2
    attribute: LeftHand.Ring.Spread
    path: 
    classID: 95
    script: {fileID: 0}
  - curve:
      serializedVersion: 2
      m_Curve:
      - time: 0
        value: .88199687
        inSlope: 0
        outSlope: 0
        tangentMode: 0
      - time: .0333333351
        value: .88199687
        inSlope: 0
        outSlope: 0
        tangentMode: 0
      m_PreInfinity: 2
      m_PostInfinity: 2
    attribute: LeftHand.Ring.2 Stretched
    path: 
    classID: 95
    script: {fileID: 0}
  - curve:
      serializedVersion: 2
      m_Curve:
      - time: 0
        value: .809418857
        inSlope: 0
        outSlope: 0
        tangentMode: 0
      - time: .0333333351
        value: .809418857
        inSlope: 0
        outSlope: 0
        tangentMode: 0
      m_PreInfinity: 2
      m_PostInfinity: 2
    attribute: LeftHand.Ring.3 Stretched
    path: 
    classID: 95
    script: {fileID: 0}
  - curve:
      serializedVersion: 2
      m_Curve:
      - time: 0
        value: .667359293
        inSlope: 0
        outSlope: 0
        tangentMode: 0
      - time: .0333333351
        value: .667359293
        inSlope: 0
        outSlope: 0
        tangentMode: 0
      m_PreInfinity: 2
      m_PostInfinity: 2
    attribute: LeftHand.Little.1 Stretched
    path: 
    classID: 95
    script: {fileID: 0}
  - curve:
      serializedVersion: 2
      m_Curve:
      - time: 0
        value: .129633546
        inSlope: 0
        outSlope: 0
        tangentMode: 0
      - time: .0333333351
        value: .129633546
        inSlope: 0
        outSlope: 0
        tangentMode: 0
      m_PreInfinity: 2
      m_PostInfinity: 2
    attribute: LeftHand.Little.Spread
    path: 
    classID: 95
    script: {fileID: 0}
  - curve:
      serializedVersion: 2
      m_Curve:
      - time: 0
        value: .692148328
        inSlope: 0
        outSlope: 0
        tangentMode: 0
      - time: .0333333351
        value: .692148328
        inSlope: 0
        outSlope: 0
        tangentMode: 0
      m_PreInfinity: 2
      m_PostInfinity: 2
    attribute: LeftHand.Little.2 Stretched
    path: 
    classID: 95
    script: {fileID: 0}
  - curve:
      serializedVersion: 2
      m_Curve:
      - time: 0
        value: .80430007
        inSlope: 0
        outSlope: 0
        tangentMode: 0
      - time: .0333333351
        value: .80430007
        inSlope: 0
        outSlope: 0
        tangentMode: 0
      m_PreInfinity: 2
      m_PostInfinity: 2
    attribute: LeftHand.Little.3 Stretched
    path: 
    classID: 95
    script: {fileID: 0}
  - curve:
      serializedVersion: 2
      m_Curve:
      - time: 0
        value: -.586819232
        inSlope: 0
        outSlope: 0
        tangentMode: 0
      - time: .0333333351
        value: -.586819232
        inSlope: 0
        outSlope: 0
        tangentMode: 0
      m_PreInfinity: 2
      m_PostInfinity: 2
    attribute: RightHand.Thumb.1 Stretched
    path: 
    classID: 95
    script: {fileID: 0}
  - curve:
      serializedVersion: 2
      m_Curve:
      - time: 0
        value: .438368917
        inSlope: 0
        outSlope: 0
        tangentMode: 0
      - time: .0333333351
        value: .438368917
        inSlope: 0
        outSlope: 0
        tangentMode: 0
      m_PreInfinity: 2
      m_PostInfinity: 2
    attribute: RightHand.Thumb.Spread
    path: 
    classID: 95
    script: {fileID: 0}
  - curve:
      serializedVersion: 2
      m_Curve:
      - time: 0
        value: -.068537049
        inSlope: 0
        outSlope: 0
        tangentMode: 0
      - time: .0333333351
        value: -.068537049
        inSlope: 0
        outSlope: 0
        tangentMode: 0
      m_PreInfinity: 2
      m_PostInfinity: 2
    attribute: RightHand.Thumb.2 Stretched
    path: 
    classID: 95
    script: {fileID: 0}
  - curve:
      serializedVersion: 2
      m_Curve:
      - time: 0
        value: .642717898
        inSlope: 0
        outSlope: 0
        tangentMode: 0
      - time: .0333333351
        value: .642717898
        inSlope: 0
        outSlope: 0
        tangentMode: 0
      m_PreInfinity: 2
      m_PostInfinity: 2
    attribute: RightHand.Thumb.3 Stretched
    path: 
    classID: 95
    script: {fileID: 0}
  - curve:
      serializedVersion: 2
      m_Curve:
      - time: 0
        value: .669079661
        inSlope: 0
        outSlope: 0
        tangentMode: 0
      - time: .0333333351
        value: .669079661
        inSlope: 0
        outSlope: 0
        tangentMode: 0
      m_PreInfinity: 2
      m_PostInfinity: 2
    attribute: RightHand.Index.1 Stretched
    path: 
    classID: 95
    script: {fileID: 0}
  - curve:
      serializedVersion: 2
      m_Curve:
      - time: 0
        value: -.401761264
        inSlope: 0
        outSlope: 0
        tangentMode: 0
      - time: .0333333351
        value: -.401761264
        inSlope: 0
        outSlope: 0
        tangentMode: 0
      m_PreInfinity: 2
      m_PostInfinity: 2
    attribute: RightHand.Index.Spread
    path: 
    classID: 95
    script: {fileID: 0}
  - curve:
      serializedVersion: 2
      m_Curve:
      - time: 0
        value: .807872951
        inSlope: 0
        outSlope: 0
        tangentMode: 0
      - time: .0333333351
        value: .807872951
        inSlope: 0
        outSlope: 0
        tangentMode: 0
      m_PreInfinity: 2
      m_PostInfinity: 2
    attribute: RightHand.Index.2 Stretched
    path: 
    classID: 95
    script: {fileID: 0}
  - curve:
      serializedVersion: 2
      m_Curve:
      - time: 0
        value: .807872951
        inSlope: 0
        outSlope: 0
        tangentMode: 0
      - time: .0333333351
        value: .807872951
        inSlope: 0
        outSlope: 0
        tangentMode: 0
      m_PreInfinity: 2
      m_PostInfinity: 2
    attribute: RightHand.Index.3 Stretched
    path: 
    classID: 95
    script: {fileID: 0}
  - curve:
      serializedVersion: 2
      m_Curve:
      - time: 0
        value: .667867184
        inSlope: 0
        outSlope: 0
        tangentMode: 0
      - time: .0333333351
        value: .667867184
        inSlope: 0
        outSlope: 0
        tangentMode: 0
      m_PreInfinity: 2
      m_PostInfinity: 2
    attribute: RightHand.Middle.1 Stretched
    path: 
    classID: 95
    script: {fileID: 0}
  - curve:
      serializedVersion: 2
      m_Curve:
      - time: 0
        value: -.615803719
        inSlope: 0
        outSlope: 0
        tangentMode: 0
      - time: .0333333351
        value: -.615803719
        inSlope: 0
        outSlope: 0
        tangentMode: 0
      m_PreInfinity: 2
      m_PostInfinity: 2
    attribute: RightHand.Middle.Spread
    path: 
    classID: 95
    script: {fileID: 0}
  - curve:
      serializedVersion: 2
      m_Curve:
      - time: 0
        value: .823951662
        inSlope: 0
        outSlope: 0
        tangentMode: 0
      - time: .0333333351
        value: .823951662
        inSlope: 0
        outSlope: 0
        tangentMode: 0
      m_PreInfinity: 2
      m_PostInfinity: 2
    attribute: RightHand.Middle.2 Stretched
    path: 
    classID: 95
    script: {fileID: 0}
  - curve:
      serializedVersion: 2
      m_Curve:
      - time: 0
        value: .811512768
        inSlope: 0
        outSlope: 0
        tangentMode: 0
      - time: .0333333351
        value: .811512768
        inSlope: 0
        outSlope: 0
        tangentMode: 0
      m_PreInfinity: 2
      m_PostInfinity: 2
    attribute: RightHand.Middle.3 Stretched
    path: 
    classID: 95
    script: {fileID: 0}
  - curve:
      serializedVersion: 2
      m_Curve:
      - time: 0
        value: .599093258
        inSlope: 0
        outSlope: 0
        tangentMode: 0
      - time: .0333333351
        value: .599093258
        inSlope: 0
        outSlope: 0
        tangentMode: 0
      m_PreInfinity: 2
      m_PostInfinity: 2
    attribute: RightHand.Ring.1 Stretched
    path: 
    classID: 95
    script: {fileID: 0}
  - curve:
      serializedVersion: 2
      m_Curve:
      - time: 0
        value: .0970001891
        inSlope: 0
        outSlope: 0
        tangentMode: 0
      - time: .0333333351
        value: .0970001891
        inSlope: 0
        outSlope: 0
        tangentMode: 0
      m_PreInfinity: 2
      m_PostInfinity: 2
    attribute: RightHand.Ring.Spread
    path: 
    classID: 95
    script: {fileID: 0}
  - curve:
      serializedVersion: 2
      m_Curve:
      - time: 0
        value: .883381426
        inSlope: 0
        outSlope: 0
        tangentMode: 0
      - time: .0333333351
        value: .883381426
        inSlope: 0
        outSlope: 0
        tangentMode: 0
      m_PreInfinity: 2
      m_PostInfinity: 2
    attribute: RightHand.Ring.2 Stretched
    path: 
    classID: 95
    script: {fileID: 0}
  - curve:
      serializedVersion: 2
      m_Curve:
      - time: 0
        value: .811156869
        inSlope: 0
        outSlope: 0
        tangentMode: 0
      - time: .0333333351
        value: .811156869
        inSlope: 0
        outSlope: 0
        tangentMode: 0
      m_PreInfinity: 2
      m_PostInfinity: 2
    attribute: RightHand.Ring.3 Stretched
    path: 
    classID: 95
    script: {fileID: 0}
  - curve:
      serializedVersion: 2
      m_Curve:
      - time: 0
        value: .670913219
        inSlope: 0
        outSlope: 0
        tangentMode: 0
      - time: .0333333351
        value: .670913219
        inSlope: 0
        outSlope: 0
        tangentMode: 0
      m_PreInfinity: 2
      m_PostInfinity: 2
    attribute: RightHand.Little.1 Stretched
    path: 
    classID: 95
    script: {fileID: 0}
  - curve:
      serializedVersion: 2
      m_Curve:
      - time: 0
        value: .107728578
        inSlope: 0
        outSlope: 0
        tangentMode: 0
      - time: .0333333351
        value: .107728578
        inSlope: 0
        outSlope: 0
        tangentMode: 0
      m_PreInfinity: 2
      m_PostInfinity: 2
    attribute: RightHand.Little.Spread
    path: 
    classID: 95
    script: {fileID: 0}
  - curve:
      serializedVersion: 2
      m_Curve:
      - time: 0
        value: .661419392
        inSlope: 0
        outSlope: 0
        tangentMode: 0
      - time: .0333333351
        value: .661419392
        inSlope: 0
        outSlope: 0
        tangentMode: 0
      m_PreInfinity: 2
      m_PostInfinity: 2
    attribute: RightHand.Little.2 Stretched
    path: 
    classID: 95
    script: {fileID: 0}
  - curve:
      serializedVersion: 2
      m_Curve:
      - time: 0
        value: .810486913
        inSlope: 0
        outSlope: 0
        tangentMode: 0
      - time: .0333333351
        value: .810486913
        inSlope: 0
        outSlope: 0
        tangentMode: 0
      m_PreInfinity: 2
      m_PostInfinity: 2
    attribute: RightHand.Little.3 Stretched
    path: 
    classID: 95
    script: {fileID: 0}
  m_PPtrCurves: []
  m_SampleRate: 30
  m_WrapMode: 0
  m_Bounds:
    m_Center: {x: 0, y: 0, z: 0}
    m_Extent: {x: 0, y: 0, z: 0}
  m_ClipBindingConstant:
    genericBindings:
    - path: 0
      attribute: 7
      script: {fileID: 0}
      classID: 95
      customType: 8
      isPPtrCurve: 0
    - path: 0
      attribute: 8
      script: {fileID: 0}
      classID: 95
      customType: 8
      isPPtrCurve: 0
    - path: 0
      attribute: 9
      script: {fileID: 0}
      classID: 95
      customType: 8
      isPPtrCurve: 0
    - path: 0
      attribute: 10
      script: {fileID: 0}
      classID: 95
      customType: 8
      isPPtrCurve: 0
    - path: 0
      attribute: 11
      script: {fileID: 0}
      classID: 95
      customType: 8
      isPPtrCurve: 0
    - path: 0
      attribute: 12
      script: {fileID: 0}
      classID: 95
      customType: 8
      isPPtrCurve: 0
    - path: 0
      attribute: 13
      script: {fileID: 0}
      classID: 95
      customType: 8
      isPPtrCurve: 0
    - path: 0
      attribute: 14
      script: {fileID: 0}
      classID: 95
      customType: 8
      isPPtrCurve: 0
    - path: 0
      attribute: 15
      script: {fileID: 0}
      classID: 95
      customType: 8
      isPPtrCurve: 0
    - path: 0
      attribute: 16
      script: {fileID: 0}
      classID: 95
      customType: 8
      isPPtrCurve: 0
    - path: 0
      attribute: 17
      script: {fileID: 0}
      classID: 95
      customType: 8
      isPPtrCurve: 0
    - path: 0
      attribute: 18
      script: {fileID: 0}
      classID: 95
      customType: 8
      isPPtrCurve: 0
    - path: 0
      attribute: 19
      script: {fileID: 0}
      classID: 95
      customType: 8
      isPPtrCurve: 0
    - path: 0
      attribute: 20
      script: {fileID: 0}
      classID: 95
      customType: 8
      isPPtrCurve: 0
    - path: 0
      attribute: 21
      script: {fileID: 0}
      classID: 95
      customType: 8
      isPPtrCurve: 0
    - path: 0
      attribute: 22
      script: {fileID: 0}
      classID: 95
      customType: 8
      isPPtrCurve: 0
    - path: 0
      attribute: 23
      script: {fileID: 0}
      classID: 95
      customType: 8
      isPPtrCurve: 0
    - path: 0
      attribute: 24
      script: {fileID: 0}
      classID: 95
      customType: 8
      isPPtrCurve: 0
    - path: 0
      attribute: 25
      script: {fileID: 0}
      classID: 95
      customType: 8
      isPPtrCurve: 0
    - path: 0
      attribute: 26
      script: {fileID: 0}
      classID: 95
      customType: 8
      isPPtrCurve: 0
    - path: 0
      attribute: 27
      script: {fileID: 0}
      classID: 95
      customType: 8
      isPPtrCurve: 0
    - path: 0
      attribute: 28
      script: {fileID: 0}
      classID: 95
      customType: 8
      isPPtrCurve: 0
    - path: 0
      attribute: 29
      script: {fileID: 0}
      classID: 95
      customType: 8
      isPPtrCurve: 0
    - path: 0
      attribute: 30
      script: {fileID: 0}
      classID: 95
      customType: 8
      isPPtrCurve: 0
    - path: 0
      attribute: 31
      script: {fileID: 0}
      classID: 95
      customType: 8
      isPPtrCurve: 0
    - path: 0
      attribute: 32
      script: {fileID: 0}
      classID: 95
      customType: 8
      isPPtrCurve: 0
    - path: 0
      attribute: 33
      script: {fileID: 0}
      classID: 95
      customType: 8
      isPPtrCurve: 0
    - path: 0
      attribute: 34
      script: {fileID: 0}
      classID: 95
      customType: 8
      isPPtrCurve: 0
    - path: 0
      attribute: 35
      script: {fileID: 0}
      classID: 95
      customType: 8
      isPPtrCurve: 0
    - path: 0
      attribute: 36
      script: {fileID: 0}
      classID: 95
      customType: 8
      isPPtrCurve: 0
    - path: 0
      attribute: 37
      script: {fileID: 0}
      classID: 95
      customType: 8
      isPPtrCurve: 0
    - path: 0
      attribute: 38
      script: {fileID: 0}
      classID: 95
      customType: 8
      isPPtrCurve: 0
    - path: 0
      attribute: 39
      script: {fileID: 0}
      classID: 95
      customType: 8
      isPPtrCurve: 0
    - path: 0
      attribute: 40
      script: {fileID: 0}
      classID: 95
      customType: 8
      isPPtrCurve: 0
    - path: 0
      attribute: 41
      script: {fileID: 0}
      classID: 95
      customType: 8
      isPPtrCurve: 0
    - path: 0
      attribute: 42
      script: {fileID: 0}
      classID: 95
      customType: 8
      isPPtrCurve: 0
    - path: 0
      attribute: 43
      script: {fileID: 0}
      classID: 95
      customType: 8
      isPPtrCurve: 0
    - path: 0
      attribute: 44
      script: {fileID: 0}
      classID: 95
      customType: 8
      isPPtrCurve: 0
    - path: 0
      attribute: 45
      script: {fileID: 0}
      classID: 95
      customType: 8
      isPPtrCurve: 0
    - path: 0
      attribute: 46
      script: {fileID: 0}
      classID: 95
      customType: 8
      isPPtrCurve: 0
    - path: 0
      attribute: 47
      script: {fileID: 0}
      classID: 95
      customType: 8
      isPPtrCurve: 0
    - path: 0
      attribute: 48
      script: {fileID: 0}
      classID: 95
      customType: 8
      isPPtrCurve: 0
    - path: 0
      attribute: 49
      script: {fileID: 0}
      classID: 95
      customType: 8
      isPPtrCurve: 0
    - path: 0
      attribute: 50
      script: {fileID: 0}
      classID: 95
      customType: 8
      isPPtrCurve: 0
    - path: 0
      attribute: 51
      script: {fileID: 0}
      classID: 95
      customType: 8
      isPPtrCurve: 0
    - path: 0
      attribute: 52
      script: {fileID: 0}
      classID: 95
      customType: 8
      isPPtrCurve: 0
    - path: 0
      attribute: 53
      script: {fileID: 0}
      classID: 95
      customType: 8
      isPPtrCurve: 0
    - path: 0
      attribute: 54
      script: {fileID: 0}
      classID: 95
      customType: 8
      isPPtrCurve: 0
    - path: 0
      attribute: 55
      script: {fileID: 0}
      classID: 95
      customType: 8
      isPPtrCurve: 0
    - path: 0
      attribute: 56
      script: {fileID: 0}
      classID: 95
      customType: 8
      isPPtrCurve: 0
    - path: 0
      attribute: 57
      script: {fileID: 0}
      classID: 95
      customType: 8
      isPPtrCurve: 0
    - path: 0
      attribute: 58
      script: {fileID: 0}
      classID: 95
      customType: 8
      isPPtrCurve: 0
    - path: 0
      attribute: 59
      script: {fileID: 0}
      classID: 95
      customType: 8
      isPPtrCurve: 0
    - path: 0
      attribute: 60
      script: {fileID: 0}
      classID: 95
      customType: 8
      isPPtrCurve: 0
    - path: 0
      attribute: 61
      script: {fileID: 0}
      classID: 95
      customType: 8
      isPPtrCurve: 0
    - path: 0
      attribute: 62
      script: {fileID: 0}
      classID: 95
      customType: 8
      isPPtrCurve: 0
    - path: 0
      attribute: 63
      script: {fileID: 0}
      classID: 95
      customType: 8
      isPPtrCurve: 0
    - path: 0
      attribute: 64
      script: {fileID: 0}
      classID: 95
      customType: 8
      isPPtrCurve: 0
    - path: 0
      attribute: 65
      script: {fileID: 0}
      classID: 95
      customType: 8
      isPPtrCurve: 0
    - path: 0
      attribute: 66
      script: {fileID: 0}
      classID: 95
      customType: 8
      isPPtrCurve: 0
    - path: 0
      attribute: 67
      script: {fileID: 0}
      classID: 95
      customType: 8
      isPPtrCurve: 0
    - path: 0
      attribute: 68
      script: {fileID: 0}
      classID: 95
      customType: 8
      isPPtrCurve: 0
    - path: 0
      attribute: 69
      script: {fileID: 0}
      classID: 95
      customType: 8
      isPPtrCurve: 0
    - path: 0
      attribute: 70
      script: {fileID: 0}
      classID: 95
      customType: 8
      isPPtrCurve: 0
    - path: 0
      attribute: 71
      script: {fileID: 0}
      classID: 95
      customType: 8
      isPPtrCurve: 0
    - path: 0
      attribute: 72
      script: {fileID: 0}
      classID: 95
      customType: 8
      isPPtrCurve: 0
    - path: 0
      attribute: 73
      script: {fileID: 0}
      classID: 95
      customType: 8
      isPPtrCurve: 0
    - path: 0
      attribute: 74
      script: {fileID: 0}
      classID: 95
      customType: 8
      isPPtrCurve: 0
    - path: 0
      attribute: 75
      script: {fileID: 0}
      classID: 95
      customType: 8
      isPPtrCurve: 0
    - path: 0
      attribute: 76
      script: {fileID: 0}
      classID: 95
      customType: 8
      isPPtrCurve: 0
    - path: 0
      attribute: 77
      script: {fileID: 0}
      classID: 95
      customType: 8
      isPPtrCurve: 0
    - path: 0
      attribute: 78
      script: {fileID: 0}
      classID: 95
      customType: 8
      isPPtrCurve: 0
    - path: 0
      attribute: 79
      script: {fileID: 0}
      classID: 95
      customType: 8
      isPPtrCurve: 0
    - path: 0
      attribute: 80
      script: {fileID: 0}
      classID: 95
      customType: 8
      isPPtrCurve: 0
    - path: 0
      attribute: 81
      script: {fileID: 0}
      classID: 95
      customType: 8
      isPPtrCurve: 0
    - path: 0
      attribute: 82
      script: {fileID: 0}
      classID: 95
      customType: 8
      isPPtrCurve: 0
    - path: 0
      attribute: 83
      script: {fileID: 0}
      classID: 95
      customType: 8
      isPPtrCurve: 0
    - path: 0
      attribute: 84
      script: {fileID: 0}
      classID: 95
      customType: 8
      isPPtrCurve: 0
    - path: 0
      attribute: 85
      script: {fileID: 0}
      classID: 95
      customType: 8
      isPPtrCurve: 0
    - path: 0
      attribute: 86
      script: {fileID: 0}
      classID: 95
      customType: 8
      isPPtrCurve: 0
    - path: 0
      attribute: 87
      script: {fileID: 0}
      classID: 95
      customType: 8
      isPPtrCurve: 0
    - path: 0
      attribute: 88
      script: {fileID: 0}
      classID: 95
      customType: 8
      isPPtrCurve: 0
    - path: 0
      attribute: 89
      script: {fileID: 0}
      classID: 95
      customType: 8
      isPPtrCurve: 0
    - path: 0
      attribute: 90
      script: {fileID: 0}
      classID: 95
      customType: 8
      isPPtrCurve: 0
    - path: 0
      attribute: 91
      script: {fileID: 0}
      classID: 95
      customType: 8
      isPPtrCurve: 0
    - path: 0
      attribute: 92
      script: {fileID: 0}
      classID: 95
      customType: 8
      isPPtrCurve: 0
    - path: 0
      attribute: 93
      script: {fileID: 0}
      classID: 95
      customType: 8
      isPPtrCurve: 0
    - path: 0
      attribute: 94
      script: {fileID: 0}
      classID: 95
      customType: 8
      isPPtrCurve: 0
    - path: 0
      attribute: 95
      script: {fileID: 0}
      classID: 95
      customType: 8
      isPPtrCurve: 0
    - path: 0
      attribute: 96
      script: {fileID: 0}
      classID: 95
      customType: 8
      isPPtrCurve: 0
    - path: 0
      attribute: 97
      script: {fileID: 0}
      classID: 95
      customType: 8
      isPPtrCurve: 0
    - path: 0
      attribute: 98
      script: {fileID: 0}
      classID: 95
      customType: 8
      isPPtrCurve: 0
    - path: 0
      attribute: 99
      script: {fileID: 0}
      classID: 95
      customType: 8
      isPPtrCurve: 0
    - path: 0
      attribute: 100
      script: {fileID: 0}
      classID: 95
      customType: 8
      isPPtrCurve: 0
    - path: 0
      attribute: 101
      script: {fileID: 0}
      classID: 95
      customType: 8
      isPPtrCurve: 0
    - path: 0
      attribute: 102
      script: {fileID: 0}
      classID: 95
      customType: 8
      isPPtrCurve: 0
    - path: 0
      attribute: 103
      script: {fileID: 0}
      classID: 95
      customType: 8
      isPPtrCurve: 0
    - path: 0
      attribute: 104
      script: {fileID: 0}
      classID: 95
      customType: 8
      isPPtrCurve: 0
    - path: 0
      attribute: 105
      script: {fileID: 0}
      classID: 95
      customType: 8
      isPPtrCurve: 0
    - path: 0
      attribute: 106
      script: {fileID: 0}
      classID: 95
      customType: 8
      isPPtrCurve: 0
    - path: 0
      attribute: 107
      script: {fileID: 0}
      classID: 95
      customType: 8
      isPPtrCurve: 0
    - path: 0
      attribute: 108
      script: {fileID: 0}
      classID: 95
      customType: 8
      isPPtrCurve: 0
    - path: 0
      attribute: 109
      script: {fileID: 0}
      classID: 95
      customType: 8
      isPPtrCurve: 0
    - path: 0
      attribute: 110
      script: {fileID: 0}
      classID: 95
      customType: 8
      isPPtrCurve: 0
    - path: 0
      attribute: 111
      script: {fileID: 0}
      classID: 95
      customType: 8
      isPPtrCurve: 0
    - path: 0
      attribute: 112
      script: {fileID: 0}
      classID: 95
      customType: 8
      isPPtrCurve: 0
    - path: 0
      attribute: 113
      script: {fileID: 0}
      classID: 95
      customType: 8
      isPPtrCurve: 0
    - path: 0
      attribute: 114
      script: {fileID: 0}
      classID: 95
      customType: 8
      isPPtrCurve: 0
    - path: 0
      attribute: 115
      script: {fileID: 0}
      classID: 95
      customType: 8
      isPPtrCurve: 0
    - path: 0
      attribute: 116
      script: {fileID: 0}
      classID: 95
      customType: 8
      isPPtrCurve: 0
    - path: 0
      attribute: 117
      script: {fileID: 0}
      classID: 95
      customType: 8
      isPPtrCurve: 0
    - path: 0
      attribute: 118
      script: {fileID: 0}
      classID: 95
      customType: 8
      isPPtrCurve: 0
    - path: 0
      attribute: 119
      script: {fileID: 0}
      classID: 95
      customType: 8
      isPPtrCurve: 0
    - path: 0
      attribute: 120
      script: {fileID: 0}
      classID: 95
      customType: 8
      isPPtrCurve: 0
    - path: 0
      attribute: 121
      script: {fileID: 0}
      classID: 95
      customType: 8
      isPPtrCurve: 0
    - path: 0
      attribute: 122
      script: {fileID: 0}
      classID: 95
      customType: 8
      isPPtrCurve: 0
    - path: 0
      attribute: 123
      script: {fileID: 0}
      classID: 95
      customType: 8
      isPPtrCurve: 0
    - path: 0
      attribute: 124
      script: {fileID: 0}
      classID: 95
      customType: 8
      isPPtrCurve: 0
    - path: 0
      attribute: 125
      script: {fileID: 0}
      classID: 95
      customType: 8
      isPPtrCurve: 0
    - path: 0
      attribute: 126
      script: {fileID: 0}
      classID: 95
      customType: 8
      isPPtrCurve: 0
    - path: 0
      attribute: 127
      script: {fileID: 0}
      classID: 95
      customType: 8
      isPPtrCurve: 0
    - path: 0
      attribute: 128
      script: {fileID: 0}
      classID: 95
      customType: 8
      isPPtrCurve: 0
    - path: 0
      attribute: 129
      script: {fileID: 0}
      classID: 95
      customType: 8
      isPPtrCurve: 0
    - path: 0
      attribute: 130
      script: {fileID: 0}
      classID: 95
      customType: 8
      isPPtrCurve: 0
    - path: 0
      attribute: 131
      script: {fileID: 0}
      classID: 95
      customType: 8
      isPPtrCurve: 0
    - path: 0
      attribute: 132
      script: {fileID: 0}
      classID: 95
      customType: 8
      isPPtrCurve: 0
    - path: 0
      attribute: 133
      script: {fileID: 0}
      classID: 95
      customType: 8
      isPPtrCurve: 0
    pptrCurveMapping: []
  m_AnimationClipSettings:
    serializedVersion: 2
    m_StartTime: 0
    m_StopTime: .0333333351
    m_OrientationOffsetY: 0
    m_Level: 0
    m_CycleOffset: 0
    m_LoopTime: 0
    m_LoopBlend: 1
    m_LoopBlendOrientation: 1
    m_LoopBlendPositionY: 0
    m_LoopBlendPositionXZ: 0
    m_KeepOriginalOrientation: 0
    m_KeepOriginalPositionY: 1
    m_KeepOriginalPositionXZ: 0
    m_HeightFromFeet: 0
    m_Mirror: 0
  m_EditorCurves: []
  m_EulerEditorCurves: []
  m_HasGenericRootTransform: 0
  m_HasMotionFloatCurves: 0
  m_GenerateMotionCurves: 0
  m_Events: []
