%YAML 1.1
%TAG !u! tag:unity3d.com,2011:
--- !u!74 &7400000
AnimationClip:
  m_ObjectHideFlags: 0
  m_PrefabParentObject: {fileID: 0}
  m_PrefabInternal: {fileID: 0}
  m_Name: assault_1_wait.vmd
  serializedVersion: 4
  m_AnimationType: 3
  m_Compressed: 0
  m_UseHighQualityCurve: 0
  m_RotationCurves: []
  m_CompressedRotationCurves: []
  m_PositionCurves: []
  m_ScaleCurves: []
  m_FloatCurves:
  - curve:
      serializedVersion: 2
      m_Curve:
      - time: 0
        value: .00258815591
        inSlope: 0
        outSlope: 0
        tangentMode: 0
      - time: .0333333351
        value: .00258815591
        inSlope: 0
        outSlope: 0
        tangentMode: 0
      m_PreInfinity: 2
      m_PostInfinity: 2
    attribute: RootT.x
    path: 
    classID: 95
    script: {fileID: 0}
  - curve:
      serializedVersion: 2
      m_Curve:
      - time: 0
        value: .996378958
        inSlope: 0
        outSlope: 0
        tangentMode: 0
      - time: .0333333351
        value: .996378958
        inSlope: 0
        outSlope: 0
        tangentMode: 0
      m_PreInfinity: 2
      m_PostInfinity: 2
    attribute: RootT.y
    path: 
    classID: 95
    script: {fileID: 0}
  - curve:
      serializedVersion: 2
      m_Curve:
      - time: 0
        value: .0146562811
        inSlope: 0
        outSlope: 0
        tangentMode: 0
      - time: .0333333351
        value: .0146562811
        inSlope: 0
        outSlope: 0
        tangentMode: 0
      m_PreInfinity: 2
      m_PostInfinity: 2
    attribute: RootT.z
    path: 
    classID: 95
    script: {fileID: 0}
  - curve:
      serializedVersion: 2
      m_Curve:
      - time: 0
        value: .0270398166
        inSlope: 0
        outSlope: 0
        tangentMode: 0
      - time: .0333333351
        value: .0270398166
        inSlope: 0
        outSlope: 0
        tangentMode: 0
      m_PreInfinity: 2
      m_PostInfinity: 2
    attribute: RootQ.x
    path: 
    classID: 95
    script: {fileID: 0}
  - curve:
      serializedVersion: 2
      m_Curve:
      - time: 0
        value: .0482322685
        inSlope: 0
        outSlope: 0
        tangentMode: 0
      - time: .0333333351
        value: .0482322685
        inSlope: 0
        outSlope: 0
        tangentMode: 0
      m_PreInfinity: 2
      m_PostInfinity: 2
    attribute: RootQ.y
    path: 
    classID: 95
    script: {fileID: 0}
  - curve:
      serializedVersion: 2
      m_Curve:
      - time: 0
        value: -.0201637112
        inSlope: 0
        outSlope: 0
        tangentMode: 0
      - time: .0333333351
        value: -.0201637112
        inSlope: 0
        outSlope: 0
        tangentMode: 0
      m_PreInfinity: 2
      m_PostInfinity: 2
    attribute: RootQ.z
    path: 
    classID: 95
    script: {fileID: 0}
  - curve:
      serializedVersion: 2
      m_Curve:
      - time: 0
        value: .998266459
        inSlope: 0
        outSlope: 0
        tangentMode: 0
      - time: .0333333351
        value: .998266459
        inSlope: 0
        outSlope: 0
        tangentMode: 0
      m_PreInfinity: 2
      m_PostInfinity: 2
    attribute: RootQ.w
    path: 
    classID: 95
    script: {fileID: 0}
  - curve:
      serializedVersion: 2
      m_Curve:
      - time: 0
        value: -.0540012419
        inSlope: 0
        outSlope: 0
        tangentMode: 0
      - time: .0333333351
        value: -.0540012419
        inSlope: 0
        outSlope: 0
        tangentMode: 0
      m_PreInfinity: 2
      m_PostInfinity: 2
    attribute: LeftFootT.x
    path: 
    classID: 95
    script: {fileID: 0}
  - curve:
      serializedVersion: 2
      m_Curve:
      - time: 0
        value: -1.00416195
        inSlope: 0
        outSlope: 0
        tangentMode: 0
      - time: .0333333351
        value: -1.00416195
        inSlope: 0
        outSlope: 0
        tangentMode: 0
      m_PreInfinity: 2
      m_PostInfinity: 2
    attribute: LeftFootT.y
    path: 
    classID: 95
    script: {fileID: 0}
  - curve:
      serializedVersion: 2
      m_Curve:
      - time: 0
        value: -.0619529225
        inSlope: 0
        outSlope: 0
        tangentMode: 0
      - time: .0333333351
        value: -.0619529225
        inSlope: 0
        outSlope: 0
        tangentMode: 0
      m_PreInfinity: 2
      m_PostInfinity: 2
    attribute: LeftFootT.z
    path: 
    classID: 95
    script: {fileID: 0}
  - curve:
      serializedVersion: 2
      m_Curve:
      - time: 0
        value: -.498618871
        inSlope: 0
        outSlope: 0
        tangentMode: 0
      - time: .0333333351
        value: -.498618871
        inSlope: 0
        outSlope: 0
        tangentMode: 0
      m_PreInfinity: 2
      m_PostInfinity: 2
    attribute: LeftFootQ.x
    path: 
    classID: 95
    script: {fileID: 0}
  - curve:
      serializedVersion: 2
      m_Curve:
      - time: 0
        value: .45141533
        inSlope: 0
        outSlope: 0
        tangentMode: 0
      - time: .0333333351
        value: .45141533
        inSlope: 0
        outSlope: 0
        tangentMode: 0
      m_PreInfinity: 2
      m_PostInfinity: 2
    attribute: LeftFootQ.y
    path: 
    classID: 95
    script: {fileID: 0}
  - curve:
      serializedVersion: 2
      m_Curve:
      - time: 0
        value: -.526687443
        inSlope: 0
        outSlope: 0
        tangentMode: 0
      - time: .0333333351
        value: -.526687443
        inSlope: 0
        outSlope: 0
        tangentMode: 0
      m_PreInfinity: 2
      m_PostInfinity: 2
    attribute: LeftFootQ.z
    path: 
    classID: 95
    script: {fileID: 0}
  - curve:
      serializedVersion: 2
      m_Curve:
      - time: 0
        value: .519811332
        inSlope: 0
        outSlope: 0
        tangentMode: 0
      - time: .0333333351
        value: .519811332
        inSlope: 0
        outSlope: 0
        tangentMode: 0
      m_PreInfinity: 2
      m_PostInfinity: 2
    attribute: LeftFootQ.w
    path: 
    classID: 95
    script: {fileID: 0}
  - curve:
      serializedVersion: 2
      m_Curve:
      - time: 0
        value: .146371603
        inSlope: 0
        outSlope: 0
        tangentMode: 0
      - time: .0333333351
        value: .146371603
        inSlope: 0
        outSlope: 0
        tangentMode: 0
      m_PreInfinity: 2
      m_PostInfinity: 2
    attribute: RightFootT.x
    path: 
    classID: 95
    script: {fileID: 0}
  - curve:
      serializedVersion: 2
      m_Curve:
      - time: 0
        value: -.996302485
        inSlope: 0
        outSlope: 0
        tangentMode: 0
      - time: .0333333351
        value: -.996302485
        inSlope: 0
        outSlope: 0
        tangentMode: 0
      m_PreInfinity: 2
      m_PostInfinity: 2
    attribute: RightFootT.y
    path: 
    classID: 95
    script: {fileID: 0}
  - curve:
      serializedVersion: 2
      m_Curve:
      - time: 0
        value: -.0566318706
        inSlope: 0
        outSlope: 0
        tangentMode: 0
      - time: .0333333351
        value: -.0566318706
        inSlope: 0
        outSlope: 0
        tangentMode: 0
      m_PreInfinity: 2
      m_PostInfinity: 2
    attribute: RightFootT.z
    path: 
    classID: 95
    script: {fileID: 0}
  - curve:
      serializedVersion: 2
      m_Curve:
      - time: 0
        value: -.498618871
        inSlope: 0
        outSlope: 0
        tangentMode: 0
      - time: .0333333351
        value: -.498618871
        inSlope: 0
        outSlope: 0
        tangentMode: 0
      m_PreInfinity: 2
      m_PostInfinity: 2
    attribute: RightFootQ.x
    path: 
    classID: 95
    script: {fileID: 0}
  - curve:
      serializedVersion: 2
      m_Curve:
      - time: 0
        value: .45141533
        inSlope: 0
        outSlope: 0
        tangentMode: 0
      - time: .0333333351
        value: .45141533
        inSlope: 0
        outSlope: 0
        tangentMode: 0
      m_PreInfinity: 2
      m_PostInfinity: 2
    attribute: RightFootQ.y
    path: 
    classID: 95
    script: {fileID: 0}
  - curve:
      serializedVersion: 2
      m_Curve:
      - time: 0
        value: -.526687443
        inSlope: 0
        outSlope: 0
        tangentMode: 0
      - time: .0333333351
        value: -.526687443
        inSlope: 0
        outSlope: 0
        tangentMode: 0
      m_PreInfinity: 2
      m_PostInfinity: 2
    attribute: RightFootQ.z
    path: 
    classID: 95
    script: {fileID: 0}
  - curve:
      serializedVersion: 2
      m_Curve:
      - time: 0
        value: .519811332
        inSlope: 0
        outSlope: 0
        tangentMode: 0
      - time: .0333333351
        value: .519811332
        inSlope: 0
        outSlope: 0
        tangentMode: 0
      m_PreInfinity: 2
      m_PostInfinity: 2
    attribute: RightFootQ.w
    path: 
    classID: 95
    script: {fileID: 0}
  - curve:
      serializedVersion: 2
      m_Curve:
      - time: 0
        value: -.0317908563
        inSlope: 0
        outSlope: 0
        tangentMode: 0
      - time: .0333333351
        value: -.0317908563
        inSlope: 0
        outSlope: 0
        tangentMode: 0
      m_PreInfinity: 2
      m_PostInfinity: 2
    attribute: LeftHandT.x
    path: 
    classID: 95
    script: {fileID: 0}
  - curve:
      serializedVersion: 2
      m_Curve:
      - time: 0
        value: .30701828
        inSlope: 0
        outSlope: 0
        tangentMode: 0
      - time: .0333333351
        value: .30701828
        inSlope: 0
        outSlope: 0
        tangentMode: 0
      m_PreInfinity: 2
      m_PostInfinity: 2
    attribute: LeftHandT.y
    path: 
    classID: 95
    script: {fileID: 0}
  - curve:
      serializedVersion: 2
      m_Curve:
      - time: 0
        value: .370518327
        inSlope: 0
        outSlope: 0
        tangentMode: 0
      - time: .0333333351
        value: .370518327
        inSlope: 0
        outSlope: 0
        tangentMode: 0
      m_PreInfinity: 2
      m_PostInfinity: 2
    attribute: LeftHandT.z
    path: 
    classID: 95
    script: {fileID: 0}
  - curve:
      serializedVersion: 2
      m_Curve:
      - time: 0
        value: -.0311478116
        inSlope: 0
        outSlope: 0
        tangentMode: 0
      - time: .0333333351
        value: -.0311478116
        inSlope: 0
        outSlope: 0
        tangentMode: 0
      m_PreInfinity: 2
      m_PostInfinity: 2
    attribute: LeftHandQ.x
    path: 
    classID: 95
    script: {fileID: 0}
  - curve:
      serializedVersion: 2
      m_Curve:
      - time: 0
        value: .27513358
        inSlope: 0
        outSlope: 0
        tangentMode: 0
      - time: .0333333351
        value: .27513358
        inSlope: 0
        outSlope: 0
        tangentMode: 0
      m_PreInfinity: 2
      m_PostInfinity: 2
    attribute: LeftHandQ.y
    path: 
    classID: 95
    script: {fileID: 0}
  - curve:
      serializedVersion: 2
      m_Curve:
      - time: 0
        value: .0199155323
        inSlope: 0
        outSlope: 0
        tangentMode: 0
      - time: .0333333351
        value: .0199155323
        inSlope: 0
        outSlope: 0
        tangentMode: 0
      m_PreInfinity: 2
      m_PostInfinity: 2
    attribute: LeftHandQ.z
    path: 
    classID: 95
    script: {fileID: 0}
  - curve:
      serializedVersion: 2
      m_Curve:
      - time: 0
        value: -.960694909
        inSlope: 0
        outSlope: 0
        tangentMode: 0
      - time: .0333333351
        value: -.960694909
        inSlope: 0
        outSlope: 0
        tangentMode: 0
      m_PreInfinity: 2
      m_PostInfinity: 2
    attribute: LeftHandQ.w
    path: 
    classID: 95
    script: {fileID: 0}
  - curve:
      serializedVersion: 2
      m_Curve:
      - time: 0
        value: .0572897121
        inSlope: 0
        outSlope: 0
        tangentMode: 0
      - time: .0333333351
        value: .0572897121
        inSlope: 0
        outSlope: 0
        tangentMode: 0
      m_PreInfinity: 2
      m_PostInfinity: 2
    attribute: RightHandT.x
    path: 
    classID: 95
    script: {fileID: 0}
  - curve:
      serializedVersion: 2
      m_Curve:
      - time: 0
        value: .235391706
        inSlope: 0
        outSlope: 0
        tangentMode: 0
      - time: .0333333351
        value: .235391706
        inSlope: 0
        outSlope: 0
        tangentMode: 0
      m_PreInfinity: 2
      m_PostInfinity: 2
    attribute: RightHandT.y
    path: 
    classID: 95
    script: {fileID: 0}
  - curve:
      serializedVersion: 2
      m_Curve:
      - time: 0
        value: .211376801
        inSlope: 0
        outSlope: 0
        tangentMode: 0
      - time: .0333333351
        value: .211376801
        inSlope: 0
        outSlope: 0
        tangentMode: 0
      m_PreInfinity: 2
      m_PostInfinity: 2
    attribute: RightHandT.z
    path: 
    classID: 95
    script: {fileID: 0}
  - curve:
      serializedVersion: 2
      m_Curve:
      - time: 0
        value: -.513982177
        inSlope: 0
        outSlope: 0
        tangentMode: 0
      - time: .0333333351
        value: -.513982177
        inSlope: 0
        outSlope: 0
        tangentMode: 0
      m_PreInfinity: 2
      m_PostInfinity: 2
    attribute: RightHandQ.x
    path: 
    classID: 95
    script: {fileID: 0}
  - curve:
      serializedVersion: 2
      m_Curve:
      - time: 0
        value: -.547861695
        inSlope: 0
        outSlope: 0
        tangentMode: 0
      - time: .0333333351
        value: -.547861695
        inSlope: 0
        outSlope: 0
        tangentMode: 0
      m_PreInfinity: 2
      m_PostInfinity: 2
    attribute: RightHandQ.y
    path: 
    classID: 95
    script: {fileID: 0}
  - curve:
      serializedVersion: 2
      m_Curve:
      - time: 0
        value: -.43046838
        inSlope: 0
        outSlope: 0
        tangentMode: 0
      - time: .0333333351
        value: -.43046838
        inSlope: 0
        outSlope: 0
        tangentMode: 0
      m_PreInfinity: 2
      m_PostInfinity: 2
    attribute: RightHandQ.z
    path: 
    classID: 95
    script: {fileID: 0}
  - curve:
      serializedVersion: 2
      m_Curve:
      - time: 0
        value: .500366807
        inSlope: 0
        outSlope: 0
        tangentMode: 0
      - time: .0333333351
        value: .500366807
        inSlope: 0
        outSlope: 0
        tangentMode: 0
      m_PreInfinity: 2
      m_PostInfinity: 2
    attribute: RightHandQ.w
    path: 
    classID: 95
    script: {fileID: 0}
  - curve:
      serializedVersion: 2
      m_Curve:
      - time: 0
        value: 0
        inSlope: 0
        outSlope: 0
        tangentMode: 0
      - time: .0333333351
        value: 0
        inSlope: 0
        outSlope: 0
        tangentMode: 0
      m_PreInfinity: 2
      m_PostInfinity: 2
    attribute: Spine Front-Back
    path: 
    classID: 95
    script: {fileID: 0}
  - curve:
      serializedVersion: 2
      m_Curve:
      - time: 0
        value: -0
        inSlope: 0
        outSlope: 0
        tangentMode: 0
      - time: .0333333351
        value: -0
        inSlope: 0
        outSlope: 0
        tangentMode: 0
      m_PreInfinity: 2
      m_PostInfinity: 2
    attribute: Spine Left-Right
    path: 
    classID: 95
    script: {fileID: 0}
  - curve:
      serializedVersion: 2
      m_Curve:
      - time: 0
        value: -0
        inSlope: 0
        outSlope: 0
        tangentMode: 0
      - time: .0333333351
        value: -0
        inSlope: 0
        outSlope: 0
        tangentMode: 0
      m_PreInfinity: 2
      m_PostInfinity: 2
    attribute: Spine Twist Left-Right
    path: 
    classID: 95
    script: {fileID: 0}
  - curve:
      serializedVersion: 2
      m_Curve:
      - time: 0
        value: 0
        inSlope: 0
        outSlope: 0
        tangentMode: 0
      - time: .0333333351
        value: 0
        inSlope: 0
        outSlope: 0
        tangentMode: 0
      m_PreInfinity: 2
      m_PostInfinity: 2
    attribute: Chest Front-Back
    path: 
    classID: 95
    script: {fileID: 0}
  - curve:
      serializedVersion: 2
      m_Curve:
      - time: 0
        value: -0
        inSlope: 0
        outSlope: 0
        tangentMode: 0
      - time: .0333333351
        value: -0
        inSlope: 0
        outSlope: 0
        tangentMode: 0
      m_PreInfinity: 2
      m_PostInfinity: 2
    attribute: Chest Left-Right
    path: 
    classID: 95
    script: {fileID: 0}
  - curve:
      serializedVersion: 2
      m_Curve:
      - time: 0
        value: -0
        inSlope: 0
        outSlope: 0
        tangentMode: 0
      - time: .0333333351
        value: -0
        inSlope: 0
        outSlope: 0
        tangentMode: 0
      m_PreInfinity: 2
      m_PostInfinity: 2
    attribute: Chest Twist Left-Right
    path: 
    classID: 95
    script: {fileID: 0}
  - curve:
      serializedVersion: 2
      m_Curve:
      - time: 0
        value: 0
        inSlope: 0
        outSlope: 0
        tangentMode: 0
      - time: .0333333351
        value: 0
        inSlope: 0
        outSlope: 0
        tangentMode: 0
      m_PreInfinity: 2
      m_PostInfinity: 2
    attribute: Neck Nod Down-Up
    path: 
    classID: 95
    script: {fileID: 0}
  - curve:
      serializedVersion: 2
      m_Curve:
      - time: 0
        value: -0
        inSlope: 0
        outSlope: 0
        tangentMode: 0
      - time: .0333333351
        value: -0
        inSlope: 0
        outSlope: 0
        tangentMode: 0
      m_PreInfinity: 2
      m_PostInfinity: 2
    attribute: Neck Tilt Left-Right
    path: 
    classID: 95
    script: {fileID: 0}
  - curve:
      serializedVersion: 2
      m_Curve:
      - time: 0
        value: -0
        inSlope: 0
        outSlope: 0
        tangentMode: 0
      - time: .0333333351
        value: -0
        inSlope: 0
        outSlope: 0
        tangentMode: 0
      m_PreInfinity: 2
      m_PostInfinity: 2
    attribute: Neck Turn Left-Right
    path: 
    classID: 95
    script: {fileID: 0}
  - curve:
      serializedVersion: 2
      m_Curve:
      - time: 0
        value: 0
        inSlope: 0
        outSlope: 0
        tangentMode: 0
      - time: .0333333351
        value: 0
        inSlope: 0
        outSlope: 0
        tangentMode: 0
      m_PreInfinity: 2
      m_PostInfinity: 2
    attribute: Head Nod Down-Up
    path: 
    classID: 95
    script: {fileID: 0}
  - curve:
      serializedVersion: 2
      m_Curve:
      - time: 0
        value: -0
        inSlope: 0
        outSlope: 0
        tangentMode: 0
      - time: .0333333351
        value: -0
        inSlope: 0
        outSlope: 0
        tangentMode: 0
      m_PreInfinity: 2
      m_PostInfinity: 2
    attribute: Head Tilt Left-Right
    path: 
    classID: 95
    script: {fileID: 0}
  - curve:
      serializedVersion: 2
      m_Curve:
      - time: 0
        value: -0
        inSlope: 0
        outSlope: 0
        tangentMode: 0
      - time: .0333333351
        value: -0
        inSlope: 0
        outSlope: 0
        tangentMode: 0
      m_PreInfinity: 2
      m_PostInfinity: 2
    attribute: Head Turn Left-Right
    path: 
    classID: 95
    script: {fileID: 0}
  - curve:
      serializedVersion: 2
      m_Curve:
      - time: 0
        value: -0
        inSlope: 0
        outSlope: 0
        tangentMode: 0
      - time: .0333333351
        value: -0
        inSlope: 0
        outSlope: 0
        tangentMode: 0
      m_PreInfinity: 2
      m_PostInfinity: 2
    attribute: Left Eye Down-Up
    path: 
    classID: 95
    script: {fileID: 0}
  - curve:
      serializedVersion: 2
      m_Curve:
      - time: 0
        value: -0
        inSlope: 0
        outSlope: 0
        tangentMode: 0
      - time: .0333333351
        value: -0
        inSlope: 0
        outSlope: 0
        tangentMode: 0
      m_PreInfinity: 2
      m_PostInfinity: 2
    attribute: Left Eye In-Out
    path: 
    classID: 95
    script: {fileID: 0}
  - curve:
      serializedVersion: 2
      m_Curve:
      - time: 0
        value: -0
        inSlope: 0
        outSlope: 0
        tangentMode: 0
      - time: .0333333351
        value: -0
        inSlope: 0
        outSlope: 0
        tangentMode: 0
      m_PreInfinity: 2
      m_PostInfinity: 2
    attribute: Right Eye Down-Up
    path: 
    classID: 95
    script: {fileID: 0}
  - curve:
      serializedVersion: 2
      m_Curve:
      - time: 0
        value: 0
        inSlope: 0
        outSlope: 0
        tangentMode: 0
      - time: .0333333351
        value: 0
        inSlope: 0
        outSlope: 0
        tangentMode: 0
      m_PreInfinity: 2
      m_PostInfinity: 2
    attribute: Right Eye In-Out
    path: 
    classID: 95
    script: {fileID: 0}
  - curve:
      serializedVersion: 2
      m_Curve:
      - time: 0
        value: 0
        inSlope: 0
        outSlope: 0
        tangentMode: 0
      - time: .0333333351
        value: 0
        inSlope: 0
        outSlope: 0
        tangentMode: 0
      m_PreInfinity: 2
      m_PostInfinity: 2
    attribute: Jaw Close
    path: 
    classID: 95
    script: {fileID: 0}
  - curve:
      serializedVersion: 2
      m_Curve:
      - time: 0
        value: 0
        inSlope: 0
        outSlope: 0
        tangentMode: 0
      - time: .0333333351
        value: 0
        inSlope: 0
        outSlope: 0
        tangentMode: 0
      m_PreInfinity: 2
      m_PostInfinity: 2
    attribute: Jaw Left-Right
    path: 
    classID: 95
    script: {fileID: 0}
  - curve:
      serializedVersion: 2
      m_Curve:
      - time: 0
        value: .599291086
        inSlope: 0
        outSlope: 0
        tangentMode: 0
      - time: .0333333351
        value: .599291086
        inSlope: 0
        outSlope: 0
        tangentMode: 0
      m_PreInfinity: 2
      m_PostInfinity: 2
    attribute: Left Upper Leg Front-Back
    path: 
    classID: 95
    script: {fileID: 0}
  - curve:
      serializedVersion: 2
      m_Curve:
      - time: 0
        value: .0068400912
        inSlope: 0
        outSlope: 0
        tangentMode: 0
      - time: .0333333351
        value: .0068400912
        inSlope: 0
        outSlope: 0
        tangentMode: 0
      m_PreInfinity: 2
      m_PostInfinity: 2
    attribute: Left Upper Leg In-Out
    path: 
    classID: 95
    script: {fileID: 0}
  - curve:
      serializedVersion: 2
      m_Curve:
      - time: 0
        value: .0465398692
        inSlope: 0
        outSlope: 0
        tangentMode: 0
      - time: .0333333351
        value: .0465398692
        inSlope: 0
        outSlope: 0
        tangentMode: 0
      m_PreInfinity: 2
      m_PostInfinity: 2
    attribute: Left Upper Leg Twist In-Out
    path: 
    classID: 95
    script: {fileID: 0}
  - curve:
      serializedVersion: 2
      m_Curve:
      - time: 0
        value: .995937049
        inSlope: 0
        outSlope: 0
        tangentMode: 0
      - time: .0333333351
        value: .995937049
        inSlope: 0
        outSlope: 0
        tangentMode: 0
      m_PreInfinity: 2
      m_PostInfinity: 2
    attribute: Left Lower Leg Stretch
    path: 
    classID: 95
    script: {fileID: 0}
  - curve:
      serializedVersion: 2
      m_Curve:
      - time: 0
        value: -.0682183504
        inSlope: 0
        outSlope: 0
        tangentMode: 0
      - time: .0333333351
        value: -.0682183504
        inSlope: 0
        outSlope: 0
        tangentMode: 0
      m_PreInfinity: 2
      m_PostInfinity: 2
    attribute: Left Lower Leg Twist In-Out
    path: 
    classID: 95
    script: {fileID: 0}
  - curve:
      serializedVersion: 2
      m_Curve:
      - time: 0
        value: 2.39056618e-07
        inSlope: 0
        outSlope: 0
        tangentMode: 0
      - time: .0333333351
        value: 2.39056618e-07
        inSlope: 0
        outSlope: 0
        tangentMode: 0
      m_PreInfinity: 2
      m_PostInfinity: 2
    attribute: Left Foot Up-Down
    path: 
    classID: 95
    script: {fileID: 0}
  - curve:
      serializedVersion: 2
      m_Curve:
      - time: 0
        value: -1.18740704e-14
        inSlope: 0
        outSlope: 0
        tangentMode: 0
      - time: .0333333351
        value: -1.18740704e-14
        inSlope: 0
        outSlope: 0
        tangentMode: 0
      m_PreInfinity: 2
      m_PostInfinity: 2
    attribute: Left Foot Twist In-Out
    path: 
    classID: 95
    script: {fileID: 0}
  - curve:
      serializedVersion: 2
      m_Curve:
      - time: 0
        value: 0
        inSlope: 0
        outSlope: 0
        tangentMode: 0
      - time: .0333333351
        value: 0
        inSlope: 0
        outSlope: 0
        tangentMode: 0
      m_PreInfinity: 2
      m_PostInfinity: 2
    attribute: Left Toes Up-Down
    path: 
    classID: 95
    script: {fileID: 0}
  - curve:
      serializedVersion: 2
      m_Curve:
      - time: 0
        value: .600034177
        inSlope: 0
        outSlope: 0
        tangentMode: 0
      - time: .0333333351
        value: .600034177
        inSlope: 0
        outSlope: 0
        tangentMode: 0
      m_PreInfinity: 2
      m_PostInfinity: 2
    attribute: Right Upper Leg Front-Back
    path: 
    classID: 95
    script: {fileID: 0}
  - curve:
      serializedVersion: 2
      m_Curve:
      - time: 0
        value: .002068097
        inSlope: 0
        outSlope: 0
        tangentMode: 0
      - time: .0333333351
        value: .002068097
        inSlope: 0
        outSlope: 0
        tangentMode: 0
      m_PreInfinity: 2
      m_PostInfinity: 2
    attribute: Right Upper Leg In-Out
    path: 
    classID: 95
    script: {fileID: 0}
  - curve:
      serializedVersion: 2
      m_Curve:
      - time: 0
        value: -.0287721809
        inSlope: 0
        outSlope: 0
        tangentMode: 0
      - time: .0333333351
        value: -.0287721809
        inSlope: 0
        outSlope: 0
        tangentMode: 0
      m_PreInfinity: 2
      m_PostInfinity: 2
    attribute: Right Upper Leg Twist In-Out
    path: 
    classID: 95
    script: {fileID: 0}
  - curve:
      serializedVersion: 2
      m_Curve:
      - time: 0
        value: 1.00004828
        inSlope: 0
        outSlope: 0
        tangentMode: 0
      - time: .0333333351
        value: 1.00004828
        inSlope: 0
        outSlope: 0
        tangentMode: 0
      m_PreInfinity: 2
      m_PostInfinity: 2
    attribute: Right Lower Leg Stretch
    path: 
    classID: 95
    script: {fileID: 0}
  - curve:
      serializedVersion: 2
      m_Curve:
      - time: 0
        value: .0198507067
        inSlope: 0
        outSlope: 0
        tangentMode: 0
      - time: .0333333351
        value: .0198507067
        inSlope: 0
        outSlope: 0
        tangentMode: 0
      m_PreInfinity: 2
      m_PostInfinity: 2
    attribute: Right Lower Leg Twist In-Out
    path: 
    classID: 95
    script: {fileID: 0}
  - curve:
      serializedVersion: 2
      m_Curve:
      - time: 0
        value: -1.36603788e-07
        inSlope: 0
        outSlope: 0
        tangentMode: 0
      - time: .0333333351
        value: -1.36603788e-07
        inSlope: 0
        outSlope: 0
        tangentMode: 0
      m_PreInfinity: 2
      m_PostInfinity: 2
    attribute: Right Foot Up-Down
    path: 
    classID: 95
    script: {fileID: 0}
  - curve:
      serializedVersion: 2
      m_Curve:
      - time: 0
        value: -6.78518326e-15
        inSlope: 0
        outSlope: 0
        tangentMode: 0
      - time: .0333333351
        value: -6.78518326e-15
        inSlope: 0
        outSlope: 0
        tangentMode: 0
      m_PreInfinity: 2
      m_PostInfinity: 2
    attribute: Right Foot Twist In-Out
    path: 
    classID: 95
    script: {fileID: 0}
  - curve:
      serializedVersion: 2
      m_Curve:
      - time: 0
        value: 0
        inSlope: 0
        outSlope: 0
        tangentMode: 0
      - time: .0333333351
        value: 0
        inSlope: 0
        outSlope: 0
        tangentMode: 0
      m_PreInfinity: 2
      m_PostInfinity: 2
    attribute: Right Toes Up-Down
    path: 
    classID: 95
    script: {fileID: 0}
  - curve:
      serializedVersion: 2
      m_Curve:
      - time: 0
        value: .245267957
        inSlope: 0
        outSlope: 0
        tangentMode: 0
      - time: .0333333351
        value: .245267957
        inSlope: 0
        outSlope: 0
        tangentMode: 0
      m_PreInfinity: 2
      m_PostInfinity: 2
    attribute: Left Shoulder Down-Up
    path: 
    classID: 95
    script: {fileID: 0}
  - curve:
      serializedVersion: 2
      m_Curve:
      - time: 0
        value: -2.2337141
        inSlope: 0
        outSlope: 0
        tangentMode: 0
      - time: .0333333351
        value: -2.2337141
        inSlope: 0
        outSlope: 0
        tangentMode: 0
      m_PreInfinity: 2
      m_PostInfinity: 2
    attribute: Left Shoulder Front-Back
    path: 
    classID: 95
    script: {fileID: 0}
  - curve:
      serializedVersion: 2
      m_Curve:
      - time: 0
        value: .115366414
        inSlope: 0
        outSlope: 0
        tangentMode: 0
      - time: .0333333351
        value: .115366414
        inSlope: 0
        outSlope: 0
        tangentMode: 0
      m_PreInfinity: 2
      m_PostInfinity: 2
    attribute: Left Arm Down-Up
    path: 
    classID: 95
    script: {fileID: 0}
  - curve:
      serializedVersion: 2
      m_Curve:
      - time: 0
        value: -.393292308
        inSlope: 0
        outSlope: 0
        tangentMode: 0
      - time: .0333333351
        value: -.393292308
        inSlope: 0
        outSlope: 0
        tangentMode: 0
      m_PreInfinity: 2
      m_PostInfinity: 2
    attribute: Left Arm Front-Back
    path: 
    classID: 95
    script: {fileID: 0}
  - curve:
      serializedVersion: 2
      m_Curve:
      - time: 0
        value: .584364593
        inSlope: 0
        outSlope: 0
        tangentMode: 0
      - time: .0333333351
        value: .584364593
        inSlope: 0
        outSlope: 0
        tangentMode: 0
      m_PreInfinity: 2
      m_PostInfinity: 2
    attribute: Left Arm Twist In-Out
    path: 
    classID: 95
    script: {fileID: 0}
  - curve:
      serializedVersion: 2
      m_Curve:
      - time: 0
        value: 1.0090183
        inSlope: 0
        outSlope: 0
        tangentMode: 0
      - time: .0333333351
        value: 1.0090183
        inSlope: 0
        outSlope: 0
        tangentMode: 0
      m_PreInfinity: 2
      m_PostInfinity: 2
    attribute: Left Forearm Stretch
    path: 
    classID: 95
    script: {fileID: 0}
  - curve:
      serializedVersion: 2
      m_Curve:
      - time: 0
        value: 1.20939791
        inSlope: 0
        outSlope: 0
        tangentMode: 0
      - time: .0333333351
        value: 1.20939791
        inSlope: 0
        outSlope: 0
        tangentMode: 0
      m_PreInfinity: 2
      m_PostInfinity: 2
    attribute: Left Forearm Twist In-Out
    path: 
    classID: 95
    script: {fileID: 0}
  - curve:
      serializedVersion: 2
      m_Curve:
      - time: 0
        value: .0213688109
        inSlope: 0
        outSlope: 0
        tangentMode: 0
      - time: .0333333351
        value: .0213688109
        inSlope: 0
        outSlope: 0
        tangentMode: 0
      m_PreInfinity: 2
      m_PostInfinity: 2
    attribute: Left Hand Down-Up
    path: 
    classID: 95
    script: {fileID: 0}
  - curve:
      serializedVersion: 2
      m_Curve:
      - time: 0
        value: 1.28274274
        inSlope: 0
        outSlope: 0
        tangentMode: 0
      - time: .0333333351
        value: 1.28274274
        inSlope: 0
        outSlope: 0
        tangentMode: 0
      m_PreInfinity: 2
      m_PostInfinity: 2
    attribute: Left Hand In-Out
    path: 
    classID: 95
    script: {fileID: 0}
  - curve:
      serializedVersion: 2
      m_Curve:
      - time: 0
        value: .222897738
        inSlope: 0
        outSlope: 0
        tangentMode: 0
      - time: .0333333351
        value: .222897738
        inSlope: 0
        outSlope: 0
        tangentMode: 0
      m_PreInfinity: 2
      m_PostInfinity: 2
    attribute: Right Shoulder Down-Up
    path: 
    classID: 95
    script: {fileID: 0}
  - curve:
      serializedVersion: 2
      m_Curve:
      - time: 0
        value: .066974327
        inSlope: 0
        outSlope: 0
        tangentMode: 0
      - time: .0333333351
        value: .066974327
        inSlope: 0
        outSlope: 0
        tangentMode: 0
      m_PreInfinity: 2
      m_PostInfinity: 2
    attribute: Right Shoulder Front-Back
    path: 
    classID: 95
    script: {fileID: 0}
  - curve:
      serializedVersion: 2
      m_Curve:
      - time: 0
        value: -.421203613
        inSlope: 0
        outSlope: 0
        tangentMode: 0
      - time: .0333333351
        value: -.421203613
        inSlope: 0
        outSlope: 0
        tangentMode: 0
      m_PreInfinity: 2
      m_PostInfinity: 2
    attribute: Right Arm Down-Up
    path: 
    classID: 95
    script: {fileID: 0}
  - curve:
      serializedVersion: 2
      m_Curve:
      - time: 0
        value: -.149821311
        inSlope: 0
        outSlope: 0
        tangentMode: 0
      - time: .0333333351
        value: -.149821311
        inSlope: 0
        outSlope: 0
        tangentMode: 0
      m_PreInfinity: 2
      m_PostInfinity: 2
    attribute: Right Arm Front-Back
    path: 
    classID: 95
    script: {fileID: 0}
  - curve:
      serializedVersion: 2
      m_Curve:
      - time: 0
        value: .246492207
        inSlope: 0
        outSlope: 0
        tangentMode: 0
      - time: .0333333351
        value: .246492207
        inSlope: 0
        outSlope: 0
        tangentMode: 0
      m_PreInfinity: 2
      m_PostInfinity: 2
    attribute: Right Arm Twist In-Out
    path: 
    classID: 95
    script: {fileID: 0}
  - curve:
      serializedVersion: 2
      m_Curve:
      - time: 0
        value: -.150649533
        inSlope: 0
        outSlope: 0
        tangentMode: 0
      - time: .0333333351
        value: -.150649533
        inSlope: 0
        outSlope: 0
        tangentMode: 0
      m_PreInfinity: 2
      m_PostInfinity: 2
    attribute: Right Forearm Stretch
    path: 
    classID: 95
    script: {fileID: 0}
  - curve:
      serializedVersion: 2
      m_Curve:
      - time: 0
        value: .189813852
        inSlope: 0
        outSlope: 0
        tangentMode: 0
      - time: .0333333351
        value: .189813852
        inSlope: 0
        outSlope: 0
        tangentMode: 0
      m_PreInfinity: 2
      m_PostInfinity: 2
    attribute: Right Forearm Twist In-Out
    path: 
    classID: 95
    script: {fileID: 0}
  - curve:
      serializedVersion: 2
      m_Curve:
      - time: 0
        value: .296933204
        inSlope: 0
        outSlope: 0
        tangentMode: 0
      - time: .0333333351
        value: .296933204
        inSlope: 0
        outSlope: 0
        tangentMode: 0
      m_PreInfinity: 2
      m_PostInfinity: 2
    attribute: Right Hand Down-Up
    path: 
    classID: 95
    script: {fileID: 0}
  - curve:
      serializedVersion: 2
      m_Curve:
      - time: 0
        value: .641197801
        inSlope: 0
        outSlope: 0
        tangentMode: 0
      - time: .0333333351
        value: .641197801
        inSlope: 0
        outSlope: 0
        tangentMode: 0
      m_PreInfinity: 2
      m_PostInfinity: 2
    attribute: Right Hand In-Out
    path: 
    classID: 95
    script: {fileID: 0}
  - curve:
      serializedVersion: 2
      m_Curve:
      - time: 0
        value: -.594900668
        inSlope: 0
        outSlope: 0
        tangentMode: 0
      - time: .0333333351
        value: -.594900668
        inSlope: 0
        outSlope: 0
        tangentMode: 0
      m_PreInfinity: 2
      m_PostInfinity: 2
    attribute: LeftHand.Thumb.1 Stretched
    path: 
    classID: 95
    script: {fileID: 0}
  - curve:
      serializedVersion: 2
      m_Curve:
      - time: 0
        value: .439365715
        inSlope: 0
        outSlope: 0
        tangentMode: 0
      - time: .0333333351
        value: .439365715
        inSlope: 0
        outSlope: 0
        tangentMode: 0
      m_PreInfinity: 2
      m_PostInfinity: 2
    attribute: LeftHand.Thumb.Spread
    path: 
    classID: 95
    script: {fileID: 0}
  - curve:
      serializedVersion: 2
      m_Curve:
      - time: 0
        value: .345477402
        inSlope: 0
        outSlope: 0
        tangentMode: 0
      - time: .0333333351
        value: .345477402
        inSlope: 0
        outSlope: 0
        tangentMode: 0
      m_PreInfinity: 2
      m_PostInfinity: 2
    attribute: LeftHand.Thumb.2 Stretched
    path: 
    classID: 95
    script: {fileID: 0}
  - curve:
      serializedVersion: 2
      m_Curve:
      - time: 0
        value: .643475533
        inSlope: 0
        outSlope: 0
        tangentMode: 0
      - time: .0333333351
        value: .643475533
        inSlope: 0
        outSlope: 0
        tangentMode: 0
      m_PreInfinity: 2
      m_PostInfinity: 2
    attribute: LeftHand.Thumb.3 Stretched
    path: 
    classID: 95
    script: {fileID: 0}
  - curve:
      serializedVersion: 2
      m_Curve:
      - time: 0
        value: .254717946
        inSlope: 0
        outSlope: 0
        tangentMode: 0
      - time: .0333333351
        value: .254717946
        inSlope: 0
        outSlope: 0
        tangentMode: 0
      m_PreInfinity: 2
      m_PostInfinity: 2
    attribute: LeftHand.Index.1 Stretched
    path: 
    classID: 95
    script: {fileID: 0}
  - curve:
      serializedVersion: 2
      m_Curve:
      - time: 0
        value: -1.0979526
        inSlope: 0
        outSlope: 0
        tangentMode: 0
      - time: .0333333351
        value: -1.0979526
        inSlope: 0
        outSlope: 0
        tangentMode: 0
      m_PreInfinity: 2
      m_PostInfinity: 2
    attribute: LeftHand.Index.Spread
    path: 
    classID: 95
    script: {fileID: 0}
  - curve:
      serializedVersion: 2
      m_Curve:
      - time: 0
        value: -.220098898
        inSlope: 0
        outSlope: 0
        tangentMode: 0
      - time: .0333333351
        value: -.220098898
        inSlope: 0
        outSlope: 0
        tangentMode: 0
      m_PreInfinity: 2
      m_PostInfinity: 2
    attribute: LeftHand.Index.2 Stretched
    path: 
    classID: 95
    script: {fileID: 0}
  - curve:
      serializedVersion: 2
      m_Curve:
      - time: 0
        value: .305730045
        inSlope: 0
        outSlope: 0
        tangentMode: 0
      - time: .0333333351
        value: .305730045
        inSlope: 0
        outSlope: 0
        tangentMode: 0
      m_PreInfinity: 2
      m_PostInfinity: 2
    attribute: LeftHand.Index.3 Stretched
    path: 
    classID: 95
    script: {fileID: 0}
  - curve:
      serializedVersion: 2
      m_Curve:
      - time: 0
        value: -.19651112
        inSlope: 0
        outSlope: 0
        tangentMode: 0
      - time: .0333333351
        value: -.19651112
        inSlope: 0
        outSlope: 0
        tangentMode: 0
      m_PreInfinity: 2
      m_PostInfinity: 2
    attribute: LeftHand.Middle.1 Stretched
    path: 
    classID: 95
    script: {fileID: 0}
  - curve:
      serializedVersion: 2
      m_Curve:
      - time: 0
        value: -3.65596151
        inSlope: 0
        outSlope: 0
        tangentMode: 0
      - time: .0333333351
        value: -3.65596151
        inSlope: 0
        outSlope: 0
        tangentMode: 0
      m_PreInfinity: 2
      m_PostInfinity: 2
    attribute: LeftHand.Middle.Spread
    path: 
    classID: 95
    script: {fileID: 0}
  - curve:
      serializedVersion: 2
      m_Curve:
      - time: 0
        value: .12216533
        inSlope: 0
        outSlope: 0
        tangentMode: 0
      - time: .0333333351
        value: .12216533
        inSlope: 0
        outSlope: 0
        tangentMode: 0
      m_PreInfinity: 2
      m_PostInfinity: 2
    attribute: LeftHand.Middle.2 Stretched
    path: 
    classID: 95
    script: {fileID: 0}
  - curve:
      serializedVersion: 2
      m_Curve:
      - time: 0
        value: -.310969144
        inSlope: 0
        outSlope: 0
        tangentMode: 0
      - time: .0333333351
        value: -.310969144
        inSlope: 0
        outSlope: 0
        tangentMode: 0
      m_PreInfinity: 2
      m_PostInfinity: 2
    attribute: LeftHand.Middle.3 Stretched
    path: 
    classID: 95
    script: {fileID: 0}
  - curve:
      serializedVersion: 2
      m_Curve:
      - time: 0
        value: .598661721
        inSlope: 0
        outSlope: 0
        tangentMode: 0
      - time: .0333333351
        value: .598661721
        inSlope: 0
        outSlope: 0
        tangentMode: 0
      m_PreInfinity: 2
      m_PostInfinity: 2
    attribute: LeftHand.Ring.1 Stretched
    path: 
    classID: 95
    script: {fileID: 0}
  - curve:
      serializedVersion: 2
      m_Curve:
      - time: 0
        value: .587436616
        inSlope: 0
        outSlope: 0
        tangentMode: 0
      - time: .0333333351
        value: .587436616
        inSlope: 0
        outSlope: 0
        tangentMode: 0
      m_PreInfinity: 2
      m_PostInfinity: 2
    attribute: LeftHand.Ring.Spread
    path: 
    classID: 95
    script: {fileID: 0}
  - curve:
      serializedVersion: 2
      m_Curve:
      - time: 0
        value: -.815618277
        inSlope: 0
        outSlope: 0
        tangentMode: 0
      - time: .0333333351
        value: -.815618277
        inSlope: 0
        outSlope: 0
        tangentMode: 0
      m_PreInfinity: 2
      m_PostInfinity: 2
    attribute: LeftHand.Ring.2 Stretched
    path: 
    classID: 95
    script: {fileID: 0}
  - curve:
      serializedVersion: 2
      m_Curve:
      - time: 0
        value: -.294134587
        inSlope: 0
        outSlope: 0
        tangentMode: 0
      - time: .0333333351
        value: -.294134587
        inSlope: 0
        outSlope: 0
        tangentMode: 0
      m_PreInfinity: 2
      m_PostInfinity: 2
    attribute: LeftHand.Ring.3 Stretched
    path: 
    classID: 95
    script: {fileID: 0}
  - curve:
      serializedVersion: 2
      m_Curve:
      - time: 0
        value: .110942543
        inSlope: 0
        outSlope: 0
        tangentMode: 0
      - time: .0333333351
        value: .110942543
        inSlope: 0
        outSlope: 0
        tangentMode: 0
      m_PreInfinity: 2
      m_PostInfinity: 2
    attribute: LeftHand.Little.1 Stretched
    path: 
    classID: 95
    script: {fileID: 0}
  - curve:
      serializedVersion: 2
      m_Curve:
      - time: 0
        value: 1.00262594
        inSlope: 0
        outSlope: 0
        tangentMode: 0
      - time: .0333333351
        value: 1.00262594
        inSlope: 0
        outSlope: 0
        tangentMode: 0
      m_PreInfinity: 2
      m_PostInfinity: 2
    attribute: LeftHand.Little.Spread
    path: 
    classID: 95
    script: {fileID: 0}
  - curve:
      serializedVersion: 2
      m_Curve:
      - time: 0
        value: -.772594452
        inSlope: 0
        outSlope: 0
        tangentMode: 0
      - time: .0333333351
        value: -.772594452
        inSlope: 0
        outSlope: 0
        tangentMode: 0
      m_PreInfinity: 2
      m_PostInfinity: 2
    attribute: LeftHand.Little.2 Stretched
    path: 
    classID: 95
    script: {fileID: 0}
  - curve:
      serializedVersion: 2
      m_Curve:
      - time: 0
        value: -.206701189
        inSlope: 0
        outSlope: 0
        tangentMode: 0
      - time: .0333333351
        value: -.206701189
        inSlope: 0
        outSlope: 0
        tangentMode: 0
      m_PreInfinity: 2
      m_PostInfinity: 2
    attribute: LeftHand.Little.3 Stretched
    path: 
    classID: 95
    script: {fileID: 0}
  - curve:
      serializedVersion: 2
      m_Curve:
      - time: 0
        value: -.586819232
        inSlope: 0
        outSlope: 0
        tangentMode: 0
      - time: .0333333351
        value: -.586819232
        inSlope: 0
        outSlope: 0
        tangentMode: 0
      m_PreInfinity: 2
      m_PostInfinity: 2
    attribute: RightHand.Thumb.1 Stretched
    path: 
    classID: 95
    script: {fileID: 0}
  - curve:
      serializedVersion: 2
      m_Curve:
      - time: 0
        value: .438368917
        inSlope: 0
        outSlope: 0
        tangentMode: 0
      - time: .0333333351
        value: .438368917
        inSlope: 0
        outSlope: 0
        tangentMode: 0
      m_PreInfinity: 2
      m_PostInfinity: 2
    attribute: RightHand.Thumb.Spread
    path: 
    classID: 95
    script: {fileID: 0}
  - curve:
      serializedVersion: 2
      m_Curve:
      - time: 0
        value: .313526869
        inSlope: 0
        outSlope: 0
        tangentMode: 0
      - time: .0333333351
        value: .313526869
        inSlope: 0
        outSlope: 0
        tangentMode: 0
      m_PreInfinity: 2
      m_PostInfinity: 2
    attribute: RightHand.Thumb.2 Stretched
    path: 
    classID: 95
    script: {fileID: 0}
  - curve:
      serializedVersion: 2
      m_Curve:
      - time: 0
        value: -.417204708
        inSlope: 0
        outSlope: 0
        tangentMode: 0
      - time: .0333333351
        value: -.417204708
        inSlope: 0
        outSlope: 0
        tangentMode: 0
      m_PreInfinity: 2
      m_PostInfinity: 2
    attribute: RightHand.Thumb.3 Stretched
    path: 
    classID: 95
    script: {fileID: 0}
  - curve:
      serializedVersion: 2
      m_Curve:
      - time: 0
        value: .0255190898
        inSlope: 0
        outSlope: 0
        tangentMode: 0
      - time: .0333333351
        value: .0255190898
        inSlope: 0
        outSlope: 0
        tangentMode: 0
      m_PreInfinity: 2
      m_PostInfinity: 2
    attribute: RightHand.Index.1 Stretched
    path: 
    classID: 95
    script: {fileID: 0}
  - curve:
      serializedVersion: 2
      m_Curve:
      - time: 0
        value: -.88947165
        inSlope: 0
        outSlope: 0
        tangentMode: 0
      - time: .0333333351
        value: -.88947165
        inSlope: 0
        outSlope: 0
        tangentMode: 0
      m_PreInfinity: 2
      m_PostInfinity: 2
    attribute: RightHand.Index.Spread
    path: 
    classID: 95
    script: {fileID: 0}
  - curve:
      serializedVersion: 2
      m_Curve:
      - time: 0
        value: -.488279253
        inSlope: 0
        outSlope: 0
        tangentMode: 0
      - time: .0333333351
        value: -.488279253
        inSlope: 0
        outSlope: 0
        tangentMode: 0
      m_PreInfinity: 2
      m_PostInfinity: 2
    attribute: RightHand.Index.2 Stretched
    path: 
    classID: 95
    script: {fileID: 0}
  - curve:
      serializedVersion: 2
      m_Curve:
      - time: 0
        value: -.32303679
        inSlope: 0
        outSlope: 0
        tangentMode: 0
      - time: .0333333351
        value: -.32303679
        inSlope: 0
        outSlope: 0
        tangentMode: 0
      m_PreInfinity: 2
      m_PostInfinity: 2
    attribute: RightHand.Index.3 Stretched
    path: 
    classID: 95
    script: {fileID: 0}
  - curve:
      serializedVersion: 2
      m_Curve:
      - time: 0
        value: -.948830843
        inSlope: 0
        outSlope: 0
        tangentMode: 0
      - time: .0333333351
        value: -.948830843
        inSlope: 0
        outSlope: 0
        tangentMode: 0
      m_PreInfinity: 2
      m_PostInfinity: 2
    attribute: RightHand.Middle.1 Stretched
    path: 
    classID: 95
    script: {fileID: 0}
  - curve:
      serializedVersion: 2
      m_Curve:
      - time: 0
        value: -.399907559
        inSlope: 0
        outSlope: 0
        tangentMode: 0
      - time: .0333333351
        value: -.399907559
        inSlope: 0
        outSlope: 0
        tangentMode: 0
      m_PreInfinity: 2
      m_PostInfinity: 2
    attribute: RightHand.Middle.Spread
    path: 
    classID: 95
    script: {fileID: 0}
  - curve:
      serializedVersion: 2
      m_Curve:
      - time: 0
        value: -.599648297
        inSlope: 0
        outSlope: 0
        tangentMode: 0
      - time: .0333333351
        value: -.599648297
        inSlope: 0
        outSlope: 0
        tangentMode: 0
      m_PreInfinity: 2
      m_PostInfinity: 2
    attribute: RightHand.Middle.2 Stretched
    path: 
    classID: 95
    script: {fileID: 0}
  - curve:
      serializedVersion: 2
      m_Curve:
      - time: 0
        value: -.167292356
        inSlope: 0
        outSlope: 0
        tangentMode: 0
      - time: .0333333351
        value: -.167292356
        inSlope: 0
        outSlope: 0
        tangentMode: 0
      m_PreInfinity: 2
      m_PostInfinity: 2
    attribute: RightHand.Middle.3 Stretched
    path: 
    classID: 95
    script: {fileID: 0}
  - curve:
      serializedVersion: 2
      m_Curve:
      - time: 0
        value: -1.06782544
        inSlope: 0
        outSlope: 0
        tangentMode: 0
      - time: .0333333351
        value: -1.06782544
        inSlope: 0
        outSlope: 0
        tangentMode: 0
      m_PreInfinity: 2
      m_PostInfinity: 2
    attribute: RightHand.Ring.1 Stretched
    path: 
    classID: 95
    script: {fileID: 0}
  - curve:
      serializedVersion: 2
      m_Curve:
      - time: 0
        value: 1.05862916
        inSlope: 0
        outSlope: 0
        tangentMode: 0
      - time: .0333333351
        value: 1.05862916
        inSlope: 0
        outSlope: 0
        tangentMode: 0
      m_PreInfinity: 2
      m_PostInfinity: 2
    attribute: RightHand.Ring.Spread
    path: 
    classID: 95
    script: {fileID: 0}
  - curve:
      serializedVersion: 2
      m_Curve:
      - time: 0
        value: -.859627903
        inSlope: 0
        outSlope: 0
        tangentMode: 0
      - time: .0333333351
        value: -.859627903
        inSlope: 0
        outSlope: 0
        tangentMode: 0
      m_PreInfinity: 2
      m_PostInfinity: 2
    attribute: RightHand.Ring.2 Stretched
    path: 
    classID: 95
    script: {fileID: 0}
  - curve:
      serializedVersion: 2
      m_Curve:
      - time: 0
        value: .494688928
        inSlope: 0
        outSlope: 0
        tangentMode: 0
      - time: .0333333351
        value: .494688928
        inSlope: 0
        outSlope: 0
        tangentMode: 0
      m_PreInfinity: 2
      m_PostInfinity: 2
    attribute: RightHand.Ring.3 Stretched
    path: 
    classID: 95
    script: {fileID: 0}
  - curve:
      serializedVersion: 2
      m_Curve:
      - time: 0
        value: -.870375276
        inSlope: 0
        outSlope: 0
        tangentMode: 0
      - time: .0333333351
        value: -.870375276
        inSlope: 0
        outSlope: 0
        tangentMode: 0
      m_PreInfinity: 2
      m_PostInfinity: 2
    attribute: RightHand.Little.1 Stretched
    path: 
    classID: 95
    script: {fileID: 0}
  - curve:
      serializedVersion: 2
      m_Curve:
      - time: 0
        value: .404428959
        inSlope: 0
        outSlope: 0
        tangentMode: 0
      - time: .0333333351
        value: .404428959
        inSlope: 0
        outSlope: 0
        tangentMode: 0
      m_PreInfinity: 2
      m_PostInfinity: 2
    attribute: RightHand.Little.Spread
    path: 
    classID: 95
    script: {fileID: 0}
  - curve:
      serializedVersion: 2
      m_Curve:
      - time: 0
        value: -1.07972693
        inSlope: 0
        outSlope: 0
        tangentMode: 0
      - time: .0333333351
        value: -1.07972693
        inSlope: 0
        outSlope: 0
        tangentMode: 0
      m_PreInfinity: 2
      m_PostInfinity: 2
    attribute: RightHand.Little.2 Stretched
    path: 
    classID: 95
    script: {fileID: 0}
  - curve:
      serializedVersion: 2
      m_Curve:
      - time: 0
        value: -.125278994
        inSlope: 0
        outSlope: 0
        tangentMode: 0
      - time: .0333333351
        value: -.125278994
        inSlope: 0
        outSlope: 0
        tangentMode: 0
      m_PreInfinity: 2
      m_PostInfinity: 2
    attribute: RightHand.Little.3 Stretched
    path: 
    classID: 95
    script: {fileID: 0}
  m_PPtrCurves: []
  m_SampleRate: 30
  m_WrapMode: 0
  m_Bounds:
    m_Center: {x: 0, y: 0, z: 0}
    m_Extent: {x: 0, y: 0, z: 0}
  m_ClipBindingConstant:
    genericBindings:
    - path: 0
      attribute: 7
      script: {fileID: 0}
      classID: 95
      customType: 8
      isPPtrCurve: 0
    - path: 0
      attribute: 8
      script: {fileID: 0}
      classID: 95
      customType: 8
      isPPtrCurve: 0
    - path: 0
      attribute: 9
      script: {fileID: 0}
      classID: 95
      customType: 8
      isPPtrCurve: 0
    - path: 0
      attribute: 10
      script: {fileID: 0}
      classID: 95
      customType: 8
      isPPtrCurve: 0
    - path: 0
      attribute: 11
      script: {fileID: 0}
      classID: 95
      customType: 8
      isPPtrCurve: 0
    - path: 0
      attribute: 12
      script: {fileID: 0}
      classID: 95
      customType: 8
      isPPtrCurve: 0
    - path: 0
      attribute: 13
      script: {fileID: 0}
      classID: 95
      customType: 8
      isPPtrCurve: 0
    - path: 0
      attribute: 14
      script: {fileID: 0}
      classID: 95
      customType: 8
      isPPtrCurve: 0
    - path: 0
      attribute: 15
      script: {fileID: 0}
      classID: 95
      customType: 8
      isPPtrCurve: 0
    - path: 0
      attribute: 16
      script: {fileID: 0}
      classID: 95
      customType: 8
      isPPtrCurve: 0
    - path: 0
      attribute: 17
      script: {fileID: 0}
      classID: 95
      customType: 8
      isPPtrCurve: 0
    - path: 0
      attribute: 18
      script: {fileID: 0}
      classID: 95
      customType: 8
      isPPtrCurve: 0
    - path: 0
      attribute: 19
      script: {fileID: 0}
      classID: 95
      customType: 8
      isPPtrCurve: 0
    - path: 0
      attribute: 20
      script: {fileID: 0}
      classID: 95
      customType: 8
      isPPtrCurve: 0
    - path: 0
      attribute: 21
      script: {fileID: 0}
      classID: 95
      customType: 8
      isPPtrCurve: 0
    - path: 0
      attribute: 22
      script: {fileID: 0}
      classID: 95
      customType: 8
      isPPtrCurve: 0
    - path: 0
      attribute: 23
      script: {fileID: 0}
      classID: 95
      customType: 8
      isPPtrCurve: 0
    - path: 0
      attribute: 24
      script: {fileID: 0}
      classID: 95
      customType: 8
      isPPtrCurve: 0
    - path: 0
      attribute: 25
      script: {fileID: 0}
      classID: 95
      customType: 8
      isPPtrCurve: 0
    - path: 0
      attribute: 26
      script: {fileID: 0}
      classID: 95
      customType: 8
      isPPtrCurve: 0
    - path: 0
      attribute: 27
      script: {fileID: 0}
      classID: 95
      customType: 8
      isPPtrCurve: 0
    - path: 0
      attribute: 28
      script: {fileID: 0}
      classID: 95
      customType: 8
      isPPtrCurve: 0
    - path: 0
      attribute: 29
      script: {fileID: 0}
      classID: 95
      customType: 8
      isPPtrCurve: 0
    - path: 0
      attribute: 30
      script: {fileID: 0}
      classID: 95
      customType: 8
      isPPtrCurve: 0
    - path: 0
      attribute: 31
      script: {fileID: 0}
      classID: 95
      customType: 8
      isPPtrCurve: 0
    - path: 0
      attribute: 32
      script: {fileID: 0}
      classID: 95
      customType: 8
      isPPtrCurve: 0
    - path: 0
      attribute: 33
      script: {fileID: 0}
      classID: 95
      customType: 8
      isPPtrCurve: 0
    - path: 0
      attribute: 34
      script: {fileID: 0}
      classID: 95
      customType: 8
      isPPtrCurve: 0
    - path: 0
      attribute: 35
      script: {fileID: 0}
      classID: 95
      customType: 8
      isPPtrCurve: 0
    - path: 0
      attribute: 36
      script: {fileID: 0}
      classID: 95
      customType: 8
      isPPtrCurve: 0
    - path: 0
      attribute: 37
      script: {fileID: 0}
      classID: 95
      customType: 8
      isPPtrCurve: 0
    - path: 0
      attribute: 38
      script: {fileID: 0}
      classID: 95
      customType: 8
      isPPtrCurve: 0
    - path: 0
      attribute: 39
      script: {fileID: 0}
      classID: 95
      customType: 8
      isPPtrCurve: 0
    - path: 0
      attribute: 40
      script: {fileID: 0}
      classID: 95
      customType: 8
      isPPtrCurve: 0
    - path: 0
      attribute: 41
      script: {fileID: 0}
      classID: 95
      customType: 8
      isPPtrCurve: 0
    - path: 0
      attribute: 42
      script: {fileID: 0}
      classID: 95
      customType: 8
      isPPtrCurve: 0
    - path: 0
      attribute: 43
      script: {fileID: 0}
      classID: 95
      customType: 8
      isPPtrCurve: 0
    - path: 0
      attribute: 44
      script: {fileID: 0}
      classID: 95
      customType: 8
      isPPtrCurve: 0
    - path: 0
      attribute: 45
      script: {fileID: 0}
      classID: 95
      customType: 8
      isPPtrCurve: 0
    - path: 0
      attribute: 46
      script: {fileID: 0}
      classID: 95
      customType: 8
      isPPtrCurve: 0
    - path: 0
      attribute: 47
      script: {fileID: 0}
      classID: 95
      customType: 8
      isPPtrCurve: 0
    - path: 0
      attribute: 48
      script: {fileID: 0}
      classID: 95
      customType: 8
      isPPtrCurve: 0
    - path: 0
      attribute: 49
      script: {fileID: 0}
      classID: 95
      customType: 8
      isPPtrCurve: 0
    - path: 0
      attribute: 50
      script: {fileID: 0}
      classID: 95
      customType: 8
      isPPtrCurve: 0
    - path: 0
      attribute: 51
      script: {fileID: 0}
      classID: 95
      customType: 8
      isPPtrCurve: 0
    - path: 0
      attribute: 52
      script: {fileID: 0}
      classID: 95
      customType: 8
      isPPtrCurve: 0
    - path: 0
      attribute: 53
      script: {fileID: 0}
      classID: 95
      customType: 8
      isPPtrCurve: 0
    - path: 0
      attribute: 54
      script: {fileID: 0}
      classID: 95
      customType: 8
      isPPtrCurve: 0
    - path: 0
      attribute: 55
      script: {fileID: 0}
      classID: 95
      customType: 8
      isPPtrCurve: 0
    - path: 0
      attribute: 56
      script: {fileID: 0}
      classID: 95
      customType: 8
      isPPtrCurve: 0
    - path: 0
      attribute: 57
      script: {fileID: 0}
      classID: 95
      customType: 8
      isPPtrCurve: 0
    - path: 0
      attribute: 58
      script: {fileID: 0}
      classID: 95
      customType: 8
      isPPtrCurve: 0
    - path: 0
      attribute: 59
      script: {fileID: 0}
      classID: 95
      customType: 8
      isPPtrCurve: 0
    - path: 0
      attribute: 60
      script: {fileID: 0}
      classID: 95
      customType: 8
      isPPtrCurve: 0
    - path: 0
      attribute: 61
      script: {fileID: 0}
      classID: 95
      customType: 8
      isPPtrCurve: 0
    - path: 0
      attribute: 62
      script: {fileID: 0}
      classID: 95
      customType: 8
      isPPtrCurve: 0
    - path: 0
      attribute: 63
      script: {fileID: 0}
      classID: 95
      customType: 8
      isPPtrCurve: 0
    - path: 0
      attribute: 64
      script: {fileID: 0}
      classID: 95
      customType: 8
      isPPtrCurve: 0
    - path: 0
      attribute: 65
      script: {fileID: 0}
      classID: 95
      customType: 8
      isPPtrCurve: 0
    - path: 0
      attribute: 66
      script: {fileID: 0}
      classID: 95
      customType: 8
      isPPtrCurve: 0
    - path: 0
      attribute: 67
      script: {fileID: 0}
      classID: 95
      customType: 8
      isPPtrCurve: 0
    - path: 0
      attribute: 68
      script: {fileID: 0}
      classID: 95
      customType: 8
      isPPtrCurve: 0
    - path: 0
      attribute: 69
      script: {fileID: 0}
      classID: 95
      customType: 8
      isPPtrCurve: 0
    - path: 0
      attribute: 70
      script: {fileID: 0}
      classID: 95
      customType: 8
      isPPtrCurve: 0
    - path: 0
      attribute: 71
      script: {fileID: 0}
      classID: 95
      customType: 8
      isPPtrCurve: 0
    - path: 0
      attribute: 72
      script: {fileID: 0}
      classID: 95
      customType: 8
      isPPtrCurve: 0
    - path: 0
      attribute: 73
      script: {fileID: 0}
      classID: 95
      customType: 8
      isPPtrCurve: 0
    - path: 0
      attribute: 74
      script: {fileID: 0}
      classID: 95
      customType: 8
      isPPtrCurve: 0
    - path: 0
      attribute: 75
      script: {fileID: 0}
      classID: 95
      customType: 8
      isPPtrCurve: 0
    - path: 0
      attribute: 76
      script: {fileID: 0}
      classID: 95
      customType: 8
      isPPtrCurve: 0
    - path: 0
      attribute: 77
      script: {fileID: 0}
      classID: 95
      customType: 8
      isPPtrCurve: 0
    - path: 0
      attribute: 78
      script: {fileID: 0}
      classID: 95
      customType: 8
      isPPtrCurve: 0
    - path: 0
      attribute: 79
      script: {fileID: 0}
      classID: 95
      customType: 8
      isPPtrCurve: 0
    - path: 0
      attribute: 80
      script: {fileID: 0}
      classID: 95
      customType: 8
      isPPtrCurve: 0
    - path: 0
      attribute: 81
      script: {fileID: 0}
      classID: 95
      customType: 8
      isPPtrCurve: 0
    - path: 0
      attribute: 82
      script: {fileID: 0}
      classID: 95
      customType: 8
      isPPtrCurve: 0
    - path: 0
      attribute: 83
      script: {fileID: 0}
      classID: 95
      customType: 8
      isPPtrCurve: 0
    - path: 0
      attribute: 84
      script: {fileID: 0}
      classID: 95
      customType: 8
      isPPtrCurve: 0
    - path: 0
      attribute: 85
      script: {fileID: 0}
      classID: 95
      customType: 8
      isPPtrCurve: 0
    - path: 0
      attribute: 86
      script: {fileID: 0}
      classID: 95
      customType: 8
      isPPtrCurve: 0
    - path: 0
      attribute: 87
      script: {fileID: 0}
      classID: 95
      customType: 8
      isPPtrCurve: 0
    - path: 0
      attribute: 88
      script: {fileID: 0}
      classID: 95
      customType: 8
      isPPtrCurve: 0
    - path: 0
      attribute: 89
      script: {fileID: 0}
      classID: 95
      customType: 8
      isPPtrCurve: 0
    - path: 0
      attribute: 90
      script: {fileID: 0}
      classID: 95
      customType: 8
      isPPtrCurve: 0
    - path: 0
      attribute: 91
      script: {fileID: 0}
      classID: 95
      customType: 8
      isPPtrCurve: 0
    - path: 0
      attribute: 92
      script: {fileID: 0}
      classID: 95
      customType: 8
      isPPtrCurve: 0
    - path: 0
      attribute: 93
      script: {fileID: 0}
      classID: 95
      customType: 8
      isPPtrCurve: 0
    - path: 0
      attribute: 94
      script: {fileID: 0}
      classID: 95
      customType: 8
      isPPtrCurve: 0
    - path: 0
      attribute: 95
      script: {fileID: 0}
      classID: 95
      customType: 8
      isPPtrCurve: 0
    - path: 0
      attribute: 96
      script: {fileID: 0}
      classID: 95
      customType: 8
      isPPtrCurve: 0
    - path: 0
      attribute: 97
      script: {fileID: 0}
      classID: 95
      customType: 8
      isPPtrCurve: 0
    - path: 0
      attribute: 98
      script: {fileID: 0}
      classID: 95
      customType: 8
      isPPtrCurve: 0
    - path: 0
      attribute: 99
      script: {fileID: 0}
      classID: 95
      customType: 8
      isPPtrCurve: 0
    - path: 0
      attribute: 100
      script: {fileID: 0}
      classID: 95
      customType: 8
      isPPtrCurve: 0
    - path: 0
      attribute: 101
      script: {fileID: 0}
      classID: 95
      customType: 8
      isPPtrCurve: 0
    - path: 0
      attribute: 102
      script: {fileID: 0}
      classID: 95
      customType: 8
      isPPtrCurve: 0
    - path: 0
      attribute: 103
      script: {fileID: 0}
      classID: 95
      customType: 8
      isPPtrCurve: 0
    - path: 0
      attribute: 104
      script: {fileID: 0}
      classID: 95
      customType: 8
      isPPtrCurve: 0
    - path: 0
      attribute: 105
      script: {fileID: 0}
      classID: 95
      customType: 8
      isPPtrCurve: 0
    - path: 0
      attribute: 106
      script: {fileID: 0}
      classID: 95
      customType: 8
      isPPtrCurve: 0
    - path: 0
      attribute: 107
      script: {fileID: 0}
      classID: 95
      customType: 8
      isPPtrCurve: 0
    - path: 0
      attribute: 108
      script: {fileID: 0}
      classID: 95
      customType: 8
      isPPtrCurve: 0
    - path: 0
      attribute: 109
      script: {fileID: 0}
      classID: 95
      customType: 8
      isPPtrCurve: 0
    - path: 0
      attribute: 110
      script: {fileID: 0}
      classID: 95
      customType: 8
      isPPtrCurve: 0
    - path: 0
      attribute: 111
      script: {fileID: 0}
      classID: 95
      customType: 8
      isPPtrCurve: 0
    - path: 0
      attribute: 112
      script: {fileID: 0}
      classID: 95
      customType: 8
      isPPtrCurve: 0
    - path: 0
      attribute: 113
      script: {fileID: 0}
      classID: 95
      customType: 8
      isPPtrCurve: 0
    - path: 0
      attribute: 114
      script: {fileID: 0}
      classID: 95
      customType: 8
      isPPtrCurve: 0
    - path: 0
      attribute: 115
      script: {fileID: 0}
      classID: 95
      customType: 8
      isPPtrCurve: 0
    - path: 0
      attribute: 116
      script: {fileID: 0}
      classID: 95
      customType: 8
      isPPtrCurve: 0
    - path: 0
      attribute: 117
      script: {fileID: 0}
      classID: 95
      customType: 8
      isPPtrCurve: 0
    - path: 0
      attribute: 118
      script: {fileID: 0}
      classID: 95
      customType: 8
      isPPtrCurve: 0
    - path: 0
      attribute: 119
      script: {fileID: 0}
      classID: 95
      customType: 8
      isPPtrCurve: 0
    - path: 0
      attribute: 120
      script: {fileID: 0}
      classID: 95
      customType: 8
      isPPtrCurve: 0
    - path: 0
      attribute: 121
      script: {fileID: 0}
      classID: 95
      customType: 8
      isPPtrCurve: 0
    - path: 0
      attribute: 122
      script: {fileID: 0}
      classID: 95
      customType: 8
      isPPtrCurve: 0
    - path: 0
      attribute: 123
      script: {fileID: 0}
      classID: 95
      customType: 8
      isPPtrCurve: 0
    - path: 0
      attribute: 124
      script: {fileID: 0}
      classID: 95
      customType: 8
      isPPtrCurve: 0
    - path: 0
      attribute: 125
      script: {fileID: 0}
      classID: 95
      customType: 8
      isPPtrCurve: 0
    - path: 0
      attribute: 126
      script: {fileID: 0}
      classID: 95
      customType: 8
      isPPtrCurve: 0
    - path: 0
      attribute: 127
      script: {fileID: 0}
      classID: 95
      customType: 8
      isPPtrCurve: 0
    - path: 0
      attribute: 128
      script: {fileID: 0}
      classID: 95
      customType: 8
      isPPtrCurve: 0
    - path: 0
      attribute: 129
      script: {fileID: 0}
      classID: 95
      customType: 8
      isPPtrCurve: 0
    - path: 0
      attribute: 130
      script: {fileID: 0}
      classID: 95
      customType: 8
      isPPtrCurve: 0
    - path: 0
      attribute: 131
      script: {fileID: 0}
      classID: 95
      customType: 8
      isPPtrCurve: 0
    - path: 0
      attribute: 132
      script: {fileID: 0}
      classID: 95
      customType: 8
      isPPtrCurve: 0
    - path: 0
      attribute: 133
      script: {fileID: 0}
      classID: 95
      customType: 8
      isPPtrCurve: 0
    pptrCurveMapping: []
  m_AnimationClipSettings:
    serializedVersion: 2
    m_StartTime: 0
    m_StopTime: .0333333351
    m_OrientationOffsetY: 0
    m_Level: 0
    m_CycleOffset: 0
    m_LoopTime: 1
    m_LoopBlend: 1
    m_LoopBlendOrientation: 0
    m_LoopBlendPositionY: 0
    m_LoopBlendPositionXZ: 0
    m_KeepOriginalOrientation: 0
    m_KeepOriginalPositionY: 1
    m_KeepOriginalPositionXZ: 0
    m_HeightFromFeet: 0
    m_Mirror: 0
  m_EditorCurves: []
  m_EulerEditorCurves: []
  m_Events: []
